VERSION:049
TN   N 1006TConsulta Genérica                       C0801 00
*N   N //VENTANACLAVE
*N   N //PRINCIPIO
VNSSSS0010001000104250796SSSD000000000000000000000000000000000000000
/T=Mantenimiento de Intermediación Financiera
/C=192192192
KNNNNN0010025012200450671010100
/T=ABMC de Intermediación Financiera
/F=0013700NNN000000000Arial                                   
*N   N //FIN
*N   N //CLAVE(I)
*N   N //PRINCIPIO
 NSSSS01940   Cod.Interm.Fin IESSN 0100850140025806530010116000001090064012902200
/L=0
/F=0012400NNN000000000Arial                                   
/f=0012700NNN000000000Arial                                   
*N   N //FIN
KNNNNN0010065012202700671000101
/T=Datos
/F=0012700NNN000000000Arial                                   
KNSSSS0010280004503450750000101
/T=Opción
/F=0012700NNN000000000Arial                                   
 NNNNN00375   OPCIONES       I NSNK0103050065032507250000113000000070007002701260
/V=A
/F=0012700NNN000000000Arial                                   
CNSSSS0  00000000000000000000100
/F=A(C375.0="A")
/P=I30
CNSSSS0  00000000000000000000100
/F=A(C375.0="B")
/P=I31
CNSSSS0  00000000000000000000100
/F=A(C375.0="C")
/P=I32
CNSSSS0  00000000000000000000100
/F=A(C375.0="M")
/P=I33
CNSSSS0ME00000000000000000000100
/F=(I31OI32OI33)YC9509=0
/M=OPCIÓN INVALIDA - REGISTRO INEXISTENTE
TN   N 1001TAlta Genérica                           A0801 00
/?=I30
*N   N //ALTA
*N   N //VENTANADATOS
*N   N //PRINCIPIO
VNSSSS0020080000103460796SSSD000000000000000000000000000000000000000
/T=Alta
/C=192192192
KNNNNN0020050002502650770000101
/T=Alta
/F=0012700NNN000000000Arial                                   
*N   N //CLAVE(N,1)
*N   N //PRINCIPIO
KNNNNN0020107006501360228000100
/T=Intermediación Financiera
/F=0012700NNN000000000Arial                                   
 NNNNN01940   Interm.Financ. IENSN 0201070240013003510000110000001070065013001860
/F=0012400NNN000000000Arial                                   
/f=0012700NNN000000000Arial                                   
CNSSSS0ME00000000000000000000100
/?=C1940=0
/M=Error - Dato ingresado con valor = 0
*N   N //NOCLAVE
*N   N //PRINCIPIO
 NNNNN01941   Descripcion    I NSN 0201470240017006800000110000001470065017001860
/m=>
/F=0012400NNN000000000Arial                                   
/f=0012700NNN000000000Arial                                   
CNSSSS0ME00000000000000000000100
/?=C1941=' '
/M=Error - Dato ingresado en blanco
 NNNNN09089   Financiera     I NSN 0201870240027702890000111100001870065021001860
/m=>
/F=0012400NNN000000000Arial                                   
/f=0012700NNN000000000Arial                                   
 NNNNN09090   Publico        I NSN 0202270240029302890000111100002270065025001860
/m=>
/F=0012400NNN000000000Arial                                   
/f=0012700NNN000000000Arial                                   
TN   N 1005TBaja Genérica                           B0801 00
/?=I31
*N   N //BAJA
*N   N //VENTANADATOS
*N   N //PRINCIPIO
VNSSSS0030080000103460796SSSD000000000000000000000000000000000000000
/T=Baja
/C=192192192
KNNNNN0030050002502720770000101
/T=Baja
/F=0012700NNN000000000Arial                                   
*N   N //CLAVE(N,1)
*N   N //PRINCIPIO
KNNNNN0030107006501360228000100
/T=Intermediación Financiera
/F=0012700NNN000000000Arial                                   
 NNNNN01940   Interm.Financ. ICNSNF0301070240013003510010115000001030068012601890
/V=C1940.1
/C=255255255
/F=0012400NNN000000000Arial                                   
/f=0012700NNN000000000Arial                                   
*N   N //NOCLAVE
*N   N //PRINCIPIO
 NNNNN01941   Descripcion    IINSN 0301430240016606780010115000001430065016601860
/C=255255255
/F=0012400NNN000000000Arial                                   
/f=0012700NNN000000000Arial                                   
 NNNNN09089   Financiera     IINSN 0301790240020202890010115000001790065020201860
/m=>
/C=255255255
/F=0012400NNN000000000Arial                                   
/f=0012700NNN000000000Arial                                   
 NNNNN09090   Publico        IINSN 0302150240023802890010115000002150065023801860
/m=>
/C=255255255
/F=0012400NNN000000000Arial                                   
/f=0012700NNN000000000Arial                                   
TN   N 1009TModificación Genérica                   M0801 00
/?=I33
*N   N //MODIFICACION
*N   N //VENTANADATOS
*N   N //PRINCIPIO
VNSSSS0040080000103460796SSSD000000000000000000000000000000000000000
/T=Modificacion
/C=192192192
KNNNNN0040050002502700770000101
/T=Modificación
/F=0012700NNN000000000Arial                                   
*N   N //CLAVE(N,1)
*N   N //PRINCIPIO
KNNNNN0040107006501360228000100
/T=Intermediación Financiera
/F=0012700NNN000000000Arial                                   
 NNNNN01940   Interm.Financ. ICNSNF0401070240013003510010115000001110070013401910
/V=C1940.1
/C=255255255
/F=0012400NNN000000000Arial                                   
/f=0012700NNN000000000Arial                                   
*N   N //NOCLAVE
*N   N //PRINCIPIO
 NNNNN01941   Descripcion    I NSN 0401460240016906780000110000001460065016901860
/m=>
/F=0012400NNN000000000Arial                                   
/f=0012700NNN000000000Arial                                   
CNSSSS0ME00000000000000000000100
/?=C1941=' '
/M=Error - Dato ingresado en blanco
 NNNNN09089   Financiera     I NSN 0401850240027502890000111100001850065020801860
/m=>
/F=0012400NNN000000000Arial                                   
/f=0012700NNN000000000Arial                                   
 NNNNN09090   Publico        I NSN 0402240240032402890000111100002240065024701860
/m=>
/F=0012400NNN000000000Arial                                   
/f=0012700NNN000000000Arial                                   
TN   N 1006TConsulta Genérica                       C0801 00
/?=I32
*N   N //CONSULTA
*N   N //VENTANADATOS
*N   N //PRINCIPIO
VNSSSS0050080000103460796SSSD000000000000000000000000000000000000000
/T=Consulta
/C=192192192
KNNNNN0050050002402670769000101
/T=Consulta
/F=0012700NNN000000000Arial                                   
*N   N //CLAVE(N,1)
*N   N //PRINCIPIO
KNNNNN0050107006501360228000100
/T=Intermediación Financiera
/F=0012700NNN000000000Arial                                   
 NNNNN01940   Interm.Financ. ICNSNA0501070240013003510010115000001140073013701940
/V=C1940.1
/C=255255255
/F=0012400NNN000000000Arial                                   
/f=0012700NNN000000000Arial                                   
*N   N //NOCLAVE
*N   N //PRINCIPIO
 NNNNN01941   Descripcion    IINSN 0501490240017206770010115000001490065017201860
/C=255255255
/F=0012400NNN000000000Arial                                   
/f=0012700NNN000000000Arial                                   
 NNNNN09089   Financiera     IINSN 0501910240021402890010115000001910065021401860
/m=>
/C=255255255
/F=0012400NNN000000000Arial                                   
/f=0012700NNN000000000Arial                                   
 NNNNN09090   Publico        IINSN 0502330240025602890010115000002330065025601860
/m=>
/C=255255255
/F=0012400NNN000000000Arial                                   
/f=0012700NNN000000000Arial                                   
CNNNNN0 P00000000000000000000100
