VERSION:055_5
TN  NN 1006TSeleccion - Adhesiones                  C00000 00
*$2020-07-23 10:16:59SB
VN  NN 010005000504250800NNND000000000000000000000000000000000000000
/T=ABMC SNP Adhesiones
/C=192192192
*$2020-07-29 17:01:16SB
KNNNNN 010010000603040761000101
/T=AMBC - SNP Adhesiones
/F=0012700NNN000000000Arial                                   
*$2020-07-23 12:19:35SB
 NSSNN 45027                                                     IESSN 010032001902960751021011600000007000700300137000
/L=0
/F=0012400NNN000000000Arial                                   
/f=0012700NNN000000000Arial                                   
*$2020-07-24 16:32:24SB
KNNNNN 010308000603570761000101
/T=Opciones
/F=0013700NNN000000000Arial                                   
*$2020-07-23 12:20:14SB
 NNNNN 00375   Opciones                                          I NSN 010326001903490751001011300000007000700300137000
/F=0012400NNN000000000Arial                                   
/f=0012700NNN000000000Arial                                   
*$2020-07-23 12:20:02SB
CNNNNN   00000000000000000000100
/F=C375='A'
/P=I100
*$2020-07-23 12:20:40SB
CNNNNN   00000000000000000000100
/F=C375='B'
/P=I101
*$2020-07-23 12:20:58SB
CNNNNN   00000000000000000000100
/F=C375='M'
/P=I102
*$2020-07-23 12:21:23SB
CNNNNN   00000000000000000000100
/F=C375='C'
/P=I103
*$2020-07-23 12:21:49SB
TN  NN 1005TBaja - SNP Adhesiones                   B44531 00
/?=I101
*$2020-07-23 12:50:07SB
CNNNNN ME00000000000000000000100
/?=C45027.1=0
/M=Debes seleccionar al menos una adhesion
*$2020-07-23 14:01:07SB
VNNNNN 020005000504320461NNND000000000000000000000000000000000000000
/T=Baja SNP Adhesiones
/C=192192192
*$2020-07-27 12:01:48SB
KNNNNN 020011000903580435000101
/T=Datos a dar de baja
/F=0012700NNN000000000Arial                                   
*$2020-07-29 14:46:08SB
 NNNNN 44523   Cliente:                                          IDNNNA020035012600580276021011500000036002300590121000
/V=C45027.1
/C=255255255
/F=0012400NNN000000000Arial                                   
/f=0012700NNN000000000Arial                                   
*$2020-07-24 16:51:44SB
 NNNNN 44524   Cuit:                                             IDNSNA020065012600880276021011500000065002300880121000
/V=C44524.1
/C=255255255
/F=0012400NNN000000000Arial                                   
/f=0012700NNN000000000Arial                                   
*$2020-07-27 12:01:37SB
 NNNNN 44525   Prestación:                                       IDNSNA020095012601180276001011500000095002301180121000
/V=C44525.1
/C=255255255
/F=0012400NNN000000000Arial                                   
/f=0012700NNN000000000Arial                                   
*$2020-07-27 12:01:37SB
 NNNNN 44526   Id Ciente:                                        IDNSNA020123012601460426001011500000123002301460121000
/V=C44526.1
/C=255255255
/F=0012400NNN000000000Arial                                   
/f=0012700NNN000000000Arial                                   
*$2020-07-27 12:01:37SB
 NNNNN 44527   CBU 1:                                            IDNNN 020152012601750276001011500000152002301750121000
/C=255255255
/F=0012400NNN000000000Arial                                   
/f=0012700NNN000000000Arial                                   
*$2020-07-27 12:01:37SB
 NNNNN 44528   CBU2:                                             IDNNN 020181012602040276001011500000181002302040121000
/C=255255255
/F=0012400NNN000000000Arial                                   
/f=0012700NNN000000000Arial                                   
*$2020-07-27 12:01:37SB
 NNNNN 44529   Fecha:                                            IDNSN 020211012602340276001011500000211002302340121000
/C=255255255
/F=0012400NNN000000000Arial                                   
/f=0012700NNN000000000Arial                                   
*$2020-07-27 12:01:37SB
 NNNNN 44530   Prioridad:                                        IDNSN 020240012602630176021011500000240002302630121000
/C=255255255
/F=0012400NNN000000000Arial                                   
/f=0012700NNN000000000Arial                                   
*$2020-07-27 12:01:37SB
 NNNNN 44531   DNI:                                              IDNNN 020269012602920426001011500000269002302920080000
/C=255255255
/F=0012400NNN000000000Arial                                   
/f=0012700NNN000000000Arial                                   
*$2020-07-27 12:01:37SB
 NNNNN 44532   Estado                                            IDNSN 020299012603220176001011500000300002303230121000
/C=255255255
/F=0012400NNN000000000Arial                                   
/f=0012700NNN000000000Arial                                   
*$2020-07-27 12:01:37SB
 NNNNN 44681   Motivo Rechazo:                                   IDNSN 020329012603520176001011500000329002303520121000
/C=255255255
/F=0012400NNN000000000Arial                                   
/f=0012700NNN000000000Arial                                   
*$2020-07-27 12:01:37SB
TN  NN 1006TConsulta - SNP Adhesiones               C00000 00
/?=I103
*$2020-07-23 14:01:31SB
CNNNNN ME00000000000000000000100
/?=C45027.1=0
/M=Debes seleccionar al menos una adhesion
*$2020-07-23 14:01:52SB
VN  NN 030005000504000677NNND000000000000000000000000000000000000000
/T=Consulta - SNP Adhesiones
/C=192192192
*$2020-07-30 09:48:12SB
KNNNNN 030009000903280643000101
/T=Datos de la Adhesion
/F=0012700NNN000000000Arial                                   
*$2020-07-30 09:48:14SB
 NNNNN 44523   Cliente:                                          IDNNNA030036013500590285021011500000036002200590119000
/V=C45027.1
/C=255255255
/F=0012400NNN000000000Arial                                   
/f=0012700NNN000000000Arial                                   
*$2020-07-29 17:44:02SB
 NNNNN 00902   Codigo Cliente                                    INNSNA000007015200300302021011000000007000700300137000
/V=C44523
/F=0012400NNN000000000Arial                                   
/f=0012700NNN000000000Arial                                   
*$2020-07-29 14:31:34SB
 NNNNN 01000   Nombre Cliente                                    IDNSN 030066013500890632001011500000068002200900119000
/C=255255255
/F=0012400NNN000000000Arial                                   
/f=0012700NNN000000000Arial                                   
*$2020-07-29 17:44:06SB
 NNNNN 44524   Cuit Empresa Originante:                          IDNSNA030098018001210330021011500000098002201210177000
/V=C44524.1
/C=255255255
/F=0012400NNN000000000Arial                                   
/f=0012700NNN000000000Arial                                   
*$2020-07-29 17:43:55SB
 NNNNN 44500   Empresa:                                          INNSNA000007015200300302021011000000007000700300137000
/V=C44524
/F=0012400NNN000000000Arial                                   
/f=0012700NNN000000000Arial                                   
*$2020-07-29 14:50:04SB
 NNNNN 44501   Dig. Verif.:                                      INNSN 000007015200300202021011000000007000700300137000
/F=0012400NNN000000000Arial                                   
/f=0012700NNN000000000Arial                                   
*$2020-07-29 14:50:12SB
 NNNNN 44502   Nombre Empresa:                                   IDNSN 030131013501540435001011500000127002201500152000
/C=255255255
/F=0012400NNN000000000Arial                                   
/f=0012700NNN000000000Arial                                   
*$2020-07-29 17:46:16SB
 NNNNN 44525   Prestación:                                       IDNSNA030164013501870285001011500000164002201870119000
/V=C44525.1
/C=255255255
/F=0012400NNN000000000Arial                                   
/f=0012700NNN000000000Arial                                   
*$2020-07-29 17:44:06SB
 NNNNN 44526   Id Ciente:                                        IDNSNA030164043001870607001011500000164031301870389000
/V=C44526.1
/C=255255255
/F=0012400NNN000000000Arial                                   
/f=0012700NNN000000000Arial                                   
*$2020-07-29 14:45:58SB
 NNNNN 44527   CBU 1:                                            IDNNN 030197013502200285001011500000197002202200096000
/C=255255255
/F=0012400NNN000000000Arial                                   
/f=0012700NNN000000000Arial                                   
*$2020-07-30 09:46:36SB
 NNNNN 44528   CBU2:                                             IDNNN 030198043002210580001011500000198031302210379000
/C=255255255
/F=0012400NNN000000000Arial                                   
/f=0012700NNN000000000Arial                                   
*$2020-07-30 09:46:14SB
 NNNNN 44529   Fecha ultima actualización:                       IDNSN 030229018902520339001011500000229002202520182000
/C=255255255
/F=0012400NNN000000000Arial                                   
/f=0012700NNN000000000Arial                                   
*$2020-07-30 09:46:07SB
 NNNNN 44530   Prioridad:                                        IDNSN 030229043002520480021011500000229036102520423000
/C=255255255
/F=0012400NNN000000000Arial                                   
/f=0012700NNN000000000Arial                                   
*$2020-07-30 09:46:20SB
 NNNNN 44531   DNI:                                              IDNNN 030258013502810296001011500000258002202810067000
/C=255255255
/F=0012400NNN000000000Arial                                   
/f=0012700NNN000000000Arial                                   
*$2020-07-30 09:46:47SB
 NNNNN 44532   Estado                                            IDNSN 030258043002810480001011500000258036102810416000
/C=255255255
/F=0012400NNN000000000Arial                                   
/f=0012700NNN000000000Arial                                   
*$2020-07-30 09:46:29SB
 NNNNN 44681   Motivo Rechazo:                                   IDNSN 030289013503120185001011500000294002203170124000
/C=255255255
/F=0012400NNN000000000Arial                                   
/f=0012700NNN000000000Arial                                   
*$2020-07-30 09:46:49SB
TN  NN 1006TIngreso - Alta Adhesion                 C00000 00
/?=I100
*$2020-07-23 15:43:37SB
VN  NN 040005000505220706NNND000000000000000000000000000000000000000
/T=Alta Adhesion
/C=192192192
*$2020-07-29 16:52:46SB
KNNNNN 040012000502440682000101
/T=Seleccione una Prestacion
/F=0012700NNN000000000Arial                                   
*$2020-07-29 16:49:10SB
 NSSNN 44507   Prestacion:                                       IENSN 040033001801990670021011600000019000600420136000
/L=0
/F=0012400NNN000000000Arial                                   
/f=0012700NNN000000000Arial                                   
*$2020-07-29 16:49:06SB
 NNNNN 44500   Empresa:                                          INNSNA000007015200300302021011000000007000700300137000
/V=C44507
/F=0012400NNN000000000Arial                                   
/f=0012700NNN000000000Arial                                   
*$2020-07-29 16:44:27SB
 NNNNN 44501   Dig. Verif.:                                      INNSN 000007015200300202021011000000007000700300137000
/F=0012400NNN000000000Arial                                   
/f=0012700NNN000000000Arial                                   
*$2020-07-29 16:44:36SB
 NNNNN 44502   Nombre Epresa:                                    IDNSN 040208016702310467001010500000208002202310152000
/C=255255255
/F=0012400NNN000000000Arial                                   
/f=0012700NNN000000000Arial                                   
*$2020-07-29 17:46:47SB
 NNNNN 44511   Largo Id Cliente:                                 INNSN 000007015200300202021011000000007000700300137000
/F=0012400NNN000000000Arial                                   
/f=0012700NNN000000000Arial                                   
*$2020-07-24 11:13:52SB
KNNNNN 040248000503600682000101
/T=Ingrese datos Cliente
/F=0012700NNN000000000Arial                                   
*$2020-07-29 16:51:57SB
 NNNNN 01923   Cliente/Persona:                                  I NSN 040270012202930239021011000000270001602930114000
/F=0012400NNN000000000Arial                                   
/f=0012700NNN000000000Arial                                   
*$2020-07-29 16:48:38SB
 NNNNN 00902   Codigo Cliente                                    INNSNA000007015200300302021011000000007000700300137000
/V=C1923
/F=0012400NNN000000000Arial                                   
/f=0012700NNN000000000Arial                                   
*$2020-07-29 14:10:58SB
 NNNNN 01000   Nombre Cliente                                    IDNSN 040298012203210621001010500000298001603210109000
/C=255255255
/F=0012400NNN000000000Arial                                   
/f=0012700NNN000000000Arial                                   
*$2020-07-29 16:49:20SB
 NNNNN 00118   Texto                                             INNNNK000007015200300452001011000000007000700300137000
/V=DNI
/F=0012400NNN000000000Arial                                   
/f=0012700NNN000000000Arial                                   
*$2020-07-23 17:27:27SB
 NNNNN 44531   DNI:                                              I NNNA040329012203520323001010000000329001603520064000
/?=C1064=C118
/V=C1963
/C=255255255
/F=0012400NNN000000000Arial                                   
/f=0012700NNN000000000Arial                                   
*$2020-07-29 16:48:54SB
 NNNNN 44531   DNI:                                              I NNN 040329012203520323001010000000329001603520064000
/?=C1064#C118
/F=0012400NNN000000000Arial                                   
/f=0012700NNN000000000Arial                                   
*$2020-07-29 16:48:57SB
CNNNNN ME00000000000000000000100
/?=F(LEN,F(LTRIM,C44531))=0
/M=El DNI no puede ser una cadena vacía
*$2020-07-27 14:51:25SB
 NNNNN 00623   Id Cliente:                                       I NSN 040329043603520625001011000000329033603520421000
/F=0012400NNN000000000Arial                                   
/f=0012700NNN000000000Arial                                   
*$2020-07-29 16:48:49SB
CNNNNN M 00000000000000000000110
/?=F(LEN,C623)#C44511
/M="Error, el largo de Id Cliente debe ser < "+C44511+" >"
*$2020-07-29 14:05:56SB
KNNNNN 040365000504480682000101
/T=Ingrese datos de la Adhesion
/F=0012700NNN000000000Arial                                   
*$2020-07-29 16:52:44SB
 NNNNN 44527   CBU 1:                                            I NNN 040389012504120275001011000000389001604120101000
/F=0012400NNN000000000Arial                                   
/f=0012700NNN000000000Arial                                   
*$2020-07-29 16:52:24SB
CNNNNN ME00000000000000000000100
/?=F(LEN,C44527)#8
/M=El primer bloque de CBU debe tener 8 digitos
*$2020-07-27 14:15:41SB
 NNNNN 44528   CBU2:                                             I NNN 040389044004120590001011000000389033304120418000
/F=0012400NNN000000000Arial                                   
/f=0012700NNN000000000Arial                                   
*$2020-07-29 16:52:17SB
CNNNNN ME00000000000000000000100
/?=F(LEN,C44528)#14
/M=El segundo bloque de CBU debe tener 14 digitos
*$2020-07-27 14:15:52SB
 NNNNN 44530   Prioridad:                                        I NSN 040419012504420175021011000000419001604420084000
/F=0012400NNN000000000Arial                                   
/f=0012700NNN000000000Arial                                   
*$2020-07-29 16:52:27SB
CNNNNN ME00000000000000000000100
/?=!(C44530>0)
/M=La proridad debe ser un numero mayor a 0
*$2020-07-27 14:10:41SB
TN  NN 1008TValidar Registro - SNP_ADHESIONES       S44531 00
/?=I100
/F=C44523=C1923.4ANDC44524=C44507.4ANDC44525=C44508.4ANDC44526=C9103.4
*$2020-07-24 16:11:16SB
 NNNNN 09509   Status Interno                                    INNSN 000007015200300202021011000000007000700300137000
/F=0012400NNN000000000Arial                                   
/f=0012700NNN000000000Arial                                   
*$2020-07-24 16:02:08SB
CNNNNN ME00000000000000000000100
/?=C9509=1
/M="Ya existe una Adhesion con los datos ingresados"
*$2020-07-24 16:12:19SB
TN  NN 1006TLectura tabla de Usuarios               C00000 00
/?=I100OI102
*$2020-07-27 14:35:35SB
 NNNNN 04411   Clave Usuario                                     INNSNA000007015200300302001011000000007000700300137000
/V=C9505
/F=0012400NNN000000000Arial                                   
/f=0012700NNN000000000Arial                                   
*$2020-07-27 12:24:42SB
 NNNNN 04414   Nombre                                            INNSN 000007015200300452001011000000007000700300137000
/F=0012400NNN000000000Arial                                   
/f=0012700NNN000000000Arial                                   
*$2020-07-27 12:24:59SB
 NNNNN 04522   Grupo                                             INNSN 000007015200300302001011000000007000700300137000
/F=0012400NNN000000000Arial                                   
/f=0012700NNN000000000Arial                                   
*$2020-07-27 12:25:07SB
TN  NN 1001TAlta - SNP_ADHESIONES                   A44531 00
/?=I100
*$2020-07-24 15:58:45SB
 NNNNN 44523   Cliente:                                          INNNNA000007015200300302021011000000007000700300137000
/V=C1923.4
/F=0012400NNN000000000Arial                                   
/f=0012700NNN000000000Arial                                   
*$2020-07-24 15:51:29SB
 NNNNN 44524   Cuit:                                             INNSNA000007015200300302021011000000007000700300137000
/V=C44507.4
/F=0012400NNN000000000Arial                                   
/f=0012700NNN000000000Arial                                   
*$2020-07-24 15:52:21SB
 NNNNN 44525   Prestación:                                       INNSNA000007015200300302001011000000007000700300137000
/V=C44508.4
/F=0012400NNN000000000Arial                                   
/f=0012700NNN000000000Arial                                   
*$2020-07-24 15:53:38SB
 NNNNN 44526   Id Ciente:                                        INNSNA000007015200300452001011000000007000700300137000
/V=C623.4
/F=0012400NNN000000000Arial                                   
/f=0012700NNN000000000Arial                                   
*$2020-07-29 14:05:32SB
 NNNNN 44527   CBU 1:                                            INNNNA000007015200300302001011000000007000700300137000
/V=C44527.4
/F=0012400NNN000000000Arial                                   
/f=0012700NNN000000000Arial                                   
*$2020-07-24 15:54:32SB
 NNNNN 44528   CBU2:                                             INNNNA000007015200300302001011000000007000700300137000
/V=C44528.4
/F=0012400NNN000000000Arial                                   
/f=0012700NNN000000000Arial                                   
*$2020-07-24 15:54:55SB
 NNNNN 44529   Fecha:                                            INNSNA000007015200300302001011000000007000700300137000
/V=C9500
/F=0012400NNN000000000Arial                                   
/f=0012700NNN000000000Arial                                   
*$2020-07-24 15:55:42SB
 NNNNN 44530   Prioridad:                                        INNSNA000007015200300202021011000000007000700300137000
/V=C44530.4
/F=0012400NNN000000000Arial                                   
/f=0012700NNN000000000Arial                                   
*$2020-07-24 15:56:39SB
 NNNNN 44531   DNI:                                              INNNNA000007015200300452001011000000007000700300137000
/V=C44531.4
/F=0012400NNN000000000Arial                                   
/f=0012700NNN000000000Arial                                   
*$2020-07-24 15:57:06SB
 NNNNN 44532   Estado                                            INNSNK000007015200300202001011000000007000700300137000
/V=AC
/F=0012400NNN000000000Arial                                   
/f=0012700NNN000000000Arial                                   
*$2020-07-24 15:57:27SB
TN  NN 1008TObtener Correlativo                     S44540 00
/?=I100
/O=C44538 desc
/F=C44535=C44525.10ANDC44533=C44523.10ANDC44534=C44524.10ANDC44536=C44526.10ANDC44537=C9500
*$2020-07-27 12:48:19SB
 NNNNN 09509   Status Interno                                    INNSN 000007015200300202021011000000007000700300137000
/F=0012400NNN000000000Arial                                   
/f=0012700NNN000000000Arial                                   
*$2020-07-27 12:28:04SB
 NNNNN 44538   Correlativo Mod.:                                 INNSN 000007015200300202021011000000007000700300137000
/F=0012400NNN000000000Arial                                   
/f=0012700NNN000000000Arial                                   
*$2020-07-27 12:28:52SB
TN  NN 1001TAlta - SNP_HIST_ADH (Alta)              A44541 00
/?=I100
*$2020-07-27 12:49:04SB
 NNNNN 44533   Cliente:                                          INNNNA000007015200300302021011000000007000700300137000
/V=C44523.7
/F=0012400NNN000000000Arial                                   
/f=0012700NNN000000000Arial                                   
*$2020-07-27 09:53:52SB
 NNNNN 44534   Empresa:                                          INNSNA000007015200300302021011000000007000700300137000
/V=C44524.7
/F=0012400NNN000000000Arial                                   
/f=0012700NNN000000000Arial                                   
*$2020-07-27 09:54:15SB
 NNNNN 44535   Prestación:                                       INNSNA000007015200300302001011000000007000700300137000
/V=C44525.7
/F=0012400NNN000000000Arial                                   
/f=0012700NNN000000000Arial                                   
*$2020-07-27 09:54:57SB
 NNNNN 44536   Id Cliente:                                       INNSNA000007015200300452001011000000007000700300137000
/V=C44526.7
/F=0012400NNN000000000Arial                                   
/f=0012700NNN000000000Arial                                   
*$2020-07-27 09:55:28SB
 NNNNN 44537   Fecha Modificación:                               INNSNA000007015200300302001011000000007000700300137000
/V=C9500
/F=0012400NNN000000000Arial                                   
/f=0012700NNN000000000Arial                                   
*$2020-07-27 09:55:52SB
 NNNNN 44538   Correlativo Mod.:                                 INNSNK000007015200300202021011000000007000700300137000
/?=C9509.8=0
/V=1
/F=0012400NNN000000000Arial                                   
/f=0012700NNN000000000Arial                                   
*$2020-07-27 12:43:01SB
 NNNNN 44538   Correlativo Mod.:                                 INNSNA000007015200300202021011000000007000700300137000
/?=C9509.8=1
/V=C44538.8
/F=0012400NNN000000000Arial                                   
/f=0012700NNN000000000Arial                                   
*$2020-07-27 12:43:34SB
 NNNNN 44539   CBU1:                                             INNNNA000007015200300302001011000000007000700300137000
/V=C44527.7
/F=0012400NNN000000000Arial                                   
/f=0012700NNN000000000Arial                                   
*$2020-07-27 09:57:03SB
 NNNNN 44540   CBU2:                                             INNNNA000007015200300302001011000000007000700300137000
/V=C44528.7
/F=0012400NNN000000000Arial                                   
/f=0012700NNN000000000Arial                                   
*$2020-07-27 09:57:37SB
 NNNNN 44541   Fecha:                                            INNSNA000007015200300302001011000000007000700300137000
/V=C44529.7
/F=0012400NNN000000000Arial                                   
/f=0012700NNN000000000Arial                                   
*$2020-07-27 12:39:46SB
 NNNNN 44542   Prioridad:                                        INNSNA000007015200300202021011000000007000700300137000
/V=C44532.7
/F=0012400NNN000000000Arial                                   
/f=0012700NNN000000000Arial                                   
*$2020-07-27 12:41:06SB
 NNNNN 44543   DNI:                                              INNNNA000007015200300452001011000000007000700300137000
/V=C44531.7
/F=0012400NNN000000000Arial                                   
/f=0012700NNN000000000Arial                                   
*$2020-07-27 12:42:24SB
 NNNNN 44544   Estado:                                           INNSNA000007015200300202001011000000007000700300137000
/V=C44532.7
/F=0012400NNN000000000Arial                                   
/f=0012700NNN000000000Arial                                   
*$2020-07-27 12:42:50SB
 NNNNN 44545   Usuario:                                          INNNNA000007015200300452001011000000007000700300137000
/V=C4414.6
/F=0012400NNN000000000Arial                                   
/f=0012700NNN000000000Arial                                   
*$2020-07-27 12:44:21SB
 NNNNN 44546   Equipo Modif.:                                    INNSNA000007015200300452001011000000007000700300137000
/V=C4522.6
/F=0012400NNN000000000Arial                                   
/f=0012700NNN000000000Arial                                   
*$2020-07-27 12:50:49SB
 NNNNN 44547   Hora Modif.:                                      INNSNA000007015200300302001011000000007000700300137000
/V=C9506
/F=0012400NNN000000000Arial                                   
/f=0012700NNN000000000Arial                                   
*$2020-07-27 12:50:47SB
TN  NN 1006TIngreso datos - Modificacion Adhesion   C00000 00
/?=I102
*$2020-07-29 16:29:08SB
VNNNNN 050051001703510677SSSD000000000000000000000000000000000000000
/T=Modificación Ahesion
/C=192192192
*$2020-07-30 10:56:49SB
KNNNNN 050011000901570655000101
/T=Cabecera Adhesion
/F=0012700NNN000000000Arial                                   
*$2020-07-29 16:16:31SB
 NNNNN 44523   Cliente:                                          IDNNNA050033018500560335021011500000033002400560154000
/V=C45027.1
/C=255255255
/F=0012400NNN000000000Arial                                   
/f=0012700NNN000000000Arial                                   
*$2020-07-29 16:17:13SB
 NNNNN 44526   Id Ciente:                                        IDNSNA050033043700560633001011500000033035000560417000
/V=C44526.1
/C=255255255
/F=0012400NNN000000000Arial                                   
/f=0012700NNN000000000Arial                                   
*$2020-07-29 16:17:24SB
 NNNNN 00902   Codigo Cliente                                    INNSNA000007015200300302021011000000007000700300137000
/V=C44523
/F=0012400NNN000000000Arial                                   
/f=0012700NNN000000000Arial                                   
*$2020-07-29 14:19:19SB
 NNNNN 01000   Nombre Cliente                                    IDNSN 050062018500850622001011500000062002400850154000
/C=255255255
/F=0012400NNN000000000Arial                                   
/f=0012700NNN000000000Arial                                   
*$2020-07-29 16:17:16SB
 NNNNN 44524   Cuit Empresa Originante:                          IDNSNA050095018501180335021011500000095002401180174000
/V=C44524.1
/C=255255255
/F=0012400NNN000000000Arial                                   
/f=0012700NNN000000000Arial                                   
*$2020-07-29 17:45:03SB
 NNNNN 44525   Prestación:                                       IDNSNA050095043701180587001011500000095035001180417000
/V=C44525.1
/C=255255255
/F=0012400NNN000000000Arial                                   
/f=0012700NNN000000000Arial                                   
*$2020-07-29 16:17:28SB
 NNNNN 44500   Empresa:                                          INNSNA000007015200300302021011000000007000700300137000
/V=C44524
/F=0012400NNN000000000Arial                                   
/f=0012700NNN000000000Arial                                   
*$2020-07-29 16:09:11SB
 NNNNN 44501   Dig. Verif.:                                      INNSN 000007015200300202021011000000007000700300137000
/F=0012400NNN000000000Arial                                   
/f=0012700NNN000000000Arial                                   
*$2020-07-29 16:09:22SB
 NNNNN 44502   Nombre Empresa:                                   IDNSN 050125018501480485001011500000125002401480154000
/C=255255255
/F=0012400NNN000000000Arial                                   
/f=0012700NNN000000000Arial                                   
*$2020-07-29 17:46:04SB
KNNNNN 050163001102780657000101
/T=Modifique datos de la Adhesion
/F=0012700NNN000000000Arial                                   
*$2020-07-30 10:38:22SB
 NNNNN 44527   CBU 1:                                            I NNN 050188018502110335001011000000188002402110154000
/F=0012400NNN000000000Arial                                   
/f=0012700NNN000000000Arial                                   
*$2020-07-30 10:38:40SB
CNNNNN ME00000000000000000000100
/?=F(LEN,C44527)#8
/M=El primer bloque de CBU debe tener 8 digitos
*$2020-07-27 14:43:02SB
 NNNNN 44528   CBU2:                                             I NNN 050189045302120603001011000000189035002120417000
/F=0012400NNN000000000Arial                                   
/f=0012700NNN000000000Arial                                   
*$2020-07-30 10:38:23SB
CNNNNN ME00000000000000000000100
/?=F(LEN,C44528)#14
/M=El segundo bloque de CBU debe tener 14 digitos
*$2020-07-27 14:43:10SB
 NNNNN 44529   Fecha:                                            INNSNA000007015200300302001011000000007000700300137000
/V=C9500
/F=0012400NNN000000000Arial                                   
/f=0012700NNN000000000Arial                                   
*$2020-07-27 10:33:22SB
 NNNNN 44531   DNI:                                              I NNN 050219018502420333001011000000219002402420154000
/F=0012400NNN000000000Arial                                   
/f=0012700NNN000000000Arial                                   
*$2020-07-30 10:38:43SB
CNNNNN ME00000000000000000000100
/?=F(LEN,F(LTRIM,C44531))=0
/M=El DNI no puede ser una cadena vacía
*$2020-07-27 14:51:13SB
 NNNNN 44530   Prioridad:                                        I NSN 050217045302400503021011000000217035002400415000
/F=0012400NNN000000000Arial                                   
/f=0012700NNN000000000Arial                                   
*$2020-07-30 10:38:25SB
CNNNNN ME00000000000000000000100
/?=!(C44530>0)
/M=La proridad debe ser un numero mayor a 0
*$2020-07-27 14:43:17SB
 NNNNN 44532   Estado                                            I NSN 050248018503410300001011110000249002402720154000
/F=0012400NNN000000000Arial                                   
/f=0012700NNN000000000Arial                                   
*$2020-07-30 10:38:51SB
 NNNNN 00345   Alfa de 11                                        INNNNK000007015200300302001011000000007000700300137000
/V=BA
/F=0012400NNN000000000Arial                                   
/f=0012700NNN000000000Arial                                   
*$2020-07-30 10:53:42SB
 NNNNN 44681   Motivo Rechazo:                                   I SSN 050247045302700503001011000000247035002700445000
/F=0012400NNN000000000Arial                                   
/f=0012700NNN000000000Arial                                   
*$2020-07-30 11:01:20SB
CNNNNN ME00000000000000000000100
/?=C44532=C345YF(LEN,F(LTRIM,C44681))=0
/M=El campo Motivo Rechazo no puede estar vacio
*$2020-07-30 10:56:01SB
TN  NN 1009TModificacion Adhesion                   M44531 00
/?=I102
*$2020-07-29 16:30:49SB
 NNNNN 44523   Cliente:                                          INNNNA000007015200300302021011000000007000700300137000
/V=C44523.10
/F=0012400NNN000000000Arial                                   
/f=0012700NNN000000000Arial                                   
*$2020-07-29 16:29:51SB
 NNNNN 44524   Cuit:                                             INNSNA000007015200300302021011000000007000700300137000
/V=C44524.10
/F=0012400NNN000000000Arial                                   
/f=0012700NNN000000000Arial                                   
*$2020-07-29 16:30:18SB
 NNNNN 44525   Prestación:                                       INNSNA000007015200300302001011000000007000700300137000
/V=C44525.10
/F=0012400NNN000000000Arial                                   
/f=0012700NNN000000000Arial                                   
*$2020-07-29 16:30:42SB
 NNNNN 44526   Id Ciente:                                        INNSNA000007015200300452001011000000007000700300137000
/V=C44526.10
/F=0012400NNN000000000Arial                                   
/f=0012700NNN000000000Arial                                   
*$2020-07-29 16:31:06SB
 NNNNN 44527   CBU 1:                                            INNNNA000007015200300302001011000000007000700300137000
/V=C44527.10
/F=0012400NNN000000000Arial                                   
/f=0012700NNN000000000Arial                                   
*$2020-07-29 16:31:22SB
 NNNNN 44528   CBU2:                                             INNNNA000007015200300302001011000000007000700300137000
/V=C44528.10
/F=0012400NNN000000000Arial                                   
/f=0012700NNN000000000Arial                                   
*$2020-07-29 16:31:35SB
 NNNNN 44529   Fecha:                                            INNSNA000007015200300302001011000000007000700300137000
/V=C44529.10
/F=0012400NNN000000000Arial                                   
/f=0012700NNN000000000Arial                                   
*$2020-07-29 16:31:47SB
 NNNNN 44530   Prioridad:                                        INNSNA000007015200300202021011000000007000700300137000
/V=C44530.10
/F=0012400NNN000000000Arial                                   
/f=0012700NNN000000000Arial                                   
*$2020-07-29 16:32:09SB
 NNNNN 44531   DNI:                                              INNNNA000007015200300452001011000000007000700300137000
/V=C44531.10
/F=0012400NNN000000000Arial                                   
/f=0012700NNN000000000Arial                                   
*$2020-07-29 16:32:28SB
 NNNNN 44532   Estado                                            INNSNA000007015200300202001011000000007000700300137000
/V=C44532.10
/F=0012400NNN000000000Arial                                   
/f=0012700NNN000000000Arial                                   
*$2020-07-29 16:32:42SB
 NNNNN 44681   Motivo Rechazo:                                   INNSNA000007015200300202001011000000007000700300137000
/V=C44681.10
/F=0012400NNN000000000Arial                                   
/f=0012700NNN000000000Arial                                   
*$2020-07-29 16:33:03SB
TN  NN 1008TObtener correlativo                     S44540 00
/?=I102
/O=C44538 desc
/F=C44535=C44525.10ANDC44533=C44523.10ANDC44534=C44524.10ANDC44536=C44526.10ANDC44537=C9500
*$2020-07-27 11:34:30SB
 NNNNN 09509   Status Interno                                    INNSN 000007015200300202021011000000007000700300137000
/F=0012400NNN000000000Arial                                   
/f=0012700NNN000000000Arial                                   
*$2020-07-27 10:56:41SB
 NNNNN 44538   Correlativo Mod.:                                 INNSN 000007015200300202021011000000007000700300137000
/F=0012400NNN000000000Arial                                   
/f=0012700NNN000000000Arial                                   
*$2020-07-27 10:23:57SB
TN  NN 1001TAlta - SNP_HIST_ADH (Modificacion)      A44541 00
/?=I102
*$2020-07-27 11:00:04SB
 NNNNN 44533   Cliente:                                          INNNNA000007015200300302021011000000007000700300137000
/V=C44523.10
/F=0012400NNN000000000Arial                                   
/f=0012700NNN000000000Arial                                   
*$2020-07-27 10:26:27SB
 NNNNN 44534   Empresa:                                          INNSNA000007015200300302021011000000007000700300137000
/V=C44524.10
/F=0012400NNN000000000Arial                                   
/f=0012700NNN000000000Arial                                   
*$2020-07-27 10:26:42SB
 NNNNN 44535   Prestación:                                       INNSNA000007015200300302001011000000007000700300137000
/V=C44525.10
/F=0012400NNN000000000Arial                                   
/f=0012700NNN000000000Arial                                   
*$2020-07-27 10:27:32SB
 NNNNN 44536   Id Cliente:                                       INNSNA000007015200300452001011000000007000700300137000
/V=C44526.10
/F=0012400NNN000000000Arial                                   
/f=0012700NNN000000000Arial                                   
*$2020-07-27 10:27:26SB
 NNNNN 44537   Fecha Modificación:                               INNSNA000007015200300302001011000000007000700300137000
/V=C9500
/F=0012400NNN000000000Arial                                   
/f=0012700NNN000000000Arial                                   
*$2020-07-27 10:28:04SB
 NNNNN 44538   Correlativo Mod.:                                 INNSNF000007015200300202021011000000007000700300137000
/?=C9509.12=1
/V=C44538.12+1
/F=0012400NNN000000000Arial                                   
/f=0012700NNN000000000Arial                                   
*$2020-07-27 10:28:38SB
 NNNNN 44538   Correlativo Mod.:                                 INNSNK050007015200300202021011000000007000700300137000
/?=C9509.12=0
/V=1
/F=0012400NNN000000000Arial                                   
/f=0012700NNN000000000Arial                                   
*$2020-07-27 10:29:12SB
 NNNNN 44539   CBU1:                                             INNNNA000007015200300302001011000000007000700300137000
/V=C44527.10
/F=0012400NNN000000000Arial                                   
/f=0012700NNN000000000Arial                                   
*$2020-07-27 10:29:41SB
 NNNNN 44540   CBU2:                                             INNNNA000007015200300302001011000000007000700300137000
/V=C44528.10
/F=0012400NNN000000000Arial                                   
/f=0012700NNN000000000Arial                                   
*$2020-07-27 10:30:00SB
 NNNNN 44541   Fecha:                                            INNSNA000007015200300302001011000000007000700300137000
/V=C44529.10
/F=0012400NNN000000000Arial                                   
/f=0012700NNN000000000Arial                                   
*$2020-07-27 10:43:25SB
 NNNNN 44543   DNI:                                              INNNNA000007015200300452001011000000007000700300137000
/V=C44531.10
/F=0012400NNN000000000Arial                                   
/f=0012700NNN000000000Arial                                   
*$2020-07-27 12:03:08SB
 NNNNN 44542   Prioridad:                                        INNSNA000007015200300202021011000000007000700300137000
/V=C44530.10
/F=0012400NNN000000000Arial                                   
/f=0012700NNN000000000Arial                                   
*$2020-07-27 10:44:02SB
 NNNNN 44544   Estado:                                           INNSNA000007015200300202001011000000007000700300137000
/V=C44532.10
/F=0012400NNN000000000Arial                                   
/f=0012700NNN000000000Arial                                   
*$2020-07-27 10:53:02SB
 NNNNN 44545   Usuario:                                          INNNNA000007015200300452001011000000007000700300137000
/V=C4414.6
/F=0012400NNN000000000Arial                                   
/f=0012700NNN000000000Arial                                   
*$2020-07-27 12:25:42SB
 NNNNN 44546   Equipo Modif.:                                    INNSNA000007015200300452001011000000007000700300137000
/V=C4522.6
/F=0012400NNN000000000Arial                                   
/f=0012700NNN000000000Arial                                   
*$2020-07-27 12:25:46SB
 NNNNN 44682   Motivo Rechazo:                                   INNSNA000007015200300202001011000000007000700300137000
/V=C44681.10
/F=0012400NNN000000000Arial                                   
/f=0012700NNN000000000Arial                                   
*$2020-07-27 11:53:25SB
 NNNNN 44547   Hora Modif.:                                      INNSNA000007015200300302001011000000007000700300137000
/V=C9506
/F=0012400NNN000000000Arial                                   
/f=0012700NNN000000000Arial                                   
*$2020-07-27 11:55:13SB
*#I103#Consulta
*#I102#Modificacion
*#I101#Baja
*#I100#Alta
