VERSION:051
TNNNNN 1006T                  Consulta Genérica ABMCC0001 00
VNNNNN0010005000504500800SSSD000000000000000000000000000000000000000
/T=Consulta - Estados de Cuentas Emitidos
/C=192192192
KNNNNN0010015003000400765010000
/T=Estados de Cuentas Emitidos
/C=192192192
/F=0012700NNN000000000Arial                                   
KN   N 010045002003090780010001
/C=000000255
/F=0013700NNN255255255Arial                                   
 NNNNN07541   AyEstadosCtasEmIESNN 01006500300289076500101160000000000000000000000
/L=0
/F=0012400NNN000000000Arial                                   
 NNNNN07536                  INSNNA00000701500027033000101100000000700070027012600
/V=C7541
KNNNNN0010322002003770780010101
/C=000000255
/F=0013700NNN255255255Arial                                   
 NNNNN00601   OPCIONES       I SNN 01034100600361071600101130000000700070027012600
CNNNNN   00000000000000000000100
/F=C601='A'
/P=I30
CNNNNN   00000000000000000000100
/F=C601='B'
/P=I31
CNNNNN   00000000000000000000100
/F=C601='M'
/P=I32
CNNNNN   00000000000000000000100
/F=C601='C'
/P=I33
 NNNNN 0025   Fecha Valor    INNNNA00000001330020024300001100000000000000020011900
/V=C9500
/F=0008400NNN000000000Arial                                   
/f=0008400NNN000000000Arial                                   
TNNNNN 1001T        Alta Estados de Cuentas EmitidosA0681 00
/?=I30
VNNNNN0020005000504500800SSSD000000000000000000000000000000000000000
/T=Alta 
/C=192192192
KN   N 020027002000900780010001
/C=000000255
/F=0013700NNN255255255Arial                                   
 NNNNN03999   Nro.Cliente    I SNN 02004702250070035202001100000004700350070016500
/F=0012400NNN000000000Arial                                   
/f=0012700NNN000000000Arial                                   
 NNNNN07536   CODIGOCLIENTE  INSNNA00046806460491069602001100000046805010491063100
/V=C3999
/F=0012400NNN000000000Arial                                   
/f=0012700NNN000000000Arial                                   
 NNNNN00902   Codigo Cliente INSNNA00046806460491069602001100000046805010491063100
/V=C3999
/F=0012400NNN000000000Arial                                   
/f=0012700NNN000000000Arial                                   
 NNNNN01000   Nombre Cliente IDSNN 02004703850070069600101150000044200940465022400
/C=255255255
/F=0012400NNN000000000Arial                                   
/f=0012700NNN000000000Arial                                   
KNNNNN0020097002003240780010101
/C=000000255
/F=0013700NNN255255255Arial                                   
 NNNNN07537   ClaveEstCta    I SNN 02012602250149037102001100000012600350149016500
/F=0012400NNN000000000Arial                                   
/f=0012700NNN000000000Arial                                   
 NNNNN07538   FechaEmision   I SNN 02017502250198035200001100000017500340198016400
/F=0012400NNN000000000Arial                                   
/f=0012700NNN000000000Arial                                   
 NNNNN07539   Estado         I SNN 02022402250291037100001112000022400350247016500
/F=0012400NNN000000000Arial                                   
/f=0012700NNN000000000Arial                                   
KNNNNN0020273003302930208000100
/T=Cantidad Estados Emitidos
/F=0013700NNN000000000Arial                                   
 NNNNN07540   CantEstadosEntrIDSNNF02027302250296027502101150000046800430491017300
/V=C7540+1
/C=255255255
/F=0012400NNN000000000Arial                                   
/f=0012700NNN000000000Arial                                   
TNNNNN 1005T        Baja Estados de Cuentas EmitidosB0681 00
/?=I31
VNNNNN0030005000504500800SSSD000000000000000000000000000000000000000
/T=Baja 
/C=192192192
KN   N 030027002000900780010001
/C=000000255
/F=0013700NNN255255255Arial                                   
 NNNNN07536   Nro.Cliente    IDSNNA03004702250070035202101150000004700350070016500
/V=C7536.1
/C=255255255
/F=0012400NNN000000000Arial                                   
/f=0012700NNN000000000Arial                                   
 NNNNN00902   Codigo Cliente INSNNA00046806460491069602001100000046805010491063100
/V=C7536.1
/F=0012400NNN000000000Arial                                   
/f=0012700NNN000000000Arial                                   
 NNNNN01000   Nombre Cliente IDSNN 03004703850070069600101150000044200940465022400
/C=255255255
/F=0012400NNN000000000Arial                                   
/f=0012700NNN000000000Arial                                   
KNNNNN0030097002003240780010101
/C=000000255
/F=0013700NNN255255255Arial                                   
CNNNNN  w00000000000000000000100
/R=F
 NNNNN07537   ClaveEstCta    IDSNNA03012602250149037100101150000012600350149016500
/V=C7537.1
/C=255255255
/F=0012400NNN000000000Arial                                   
/f=0012700NNN000000000Arial                                   
CNNNNN ME00000000000000000000100
/?=C9509=0
/M=No hay registros...
 NNNNN07538   FechaEmision   IDSNNA03017502250198035200101150000017500340198016400
/V=C7538.1
/C=255255255
/F=0012400NNN000000000Arial                                   
/f=0012700NNN000000000Arial                                   
 NNNNN07539   Estado         IDSNNA03022402240247037000101150000022400350247016500
/V=C7539.1
/C=255255255
/F=0012400NNN000000000Arial                                   
/f=0012700NNN000000000Arial                                   
KNNNNN0030273003302930208000100
/T=Cantidad Estados Emitidos
/F=0013700NNN000000000Arial                                   
 NNNNN07540   CantEstadosEntrIDSNNA03027302250296027500101150000046800430491017300
/V=C7540.1
/C=255255255
/F=0012400NNN000000000Arial                                   
/f=0012700NNN000000000Arial                                   
TNNNNN 1009TModificación Estados de Cuentas EmitidosM0681 00
/?=I32
VNNNNN0040005000504500800SSSD000000000000000000000000000000000000000
/T=Modificación 
/C=192192192
KN   N 040027002000900780010001
/C=000000255
/F=0013700NNN255255255Arial                                   
 NNNNN07536   Nro.Cliente    IDSNNA04004702440070037102101150000004700350070016500
/V=C7536.1
/C=255255255
/F=0012400NNN000000000Arial                                   
/f=0012700NNN000000000Arial                                   
 NNNNN00902   Codigo Cliente INSNNA00046806460491069602001100000046805010491063100
/V=C7536.1
/F=0012400NNN000000000Arial                                   
/f=0012700NNN000000000Arial                                   
 NNNNN01000   Nombre Cliente IDSNN 04004703850070069600101150000044200940465022400
/C=255255255
/F=0012400NNN000000000Arial                                   
/f=0012700NNN000000000Arial                                   
KNNNNN0040097002003240780010101
/C=000000255
/F=0013700NNN255255255Arial                                   
CNNNNN  w00000000000000000000100
/R=F
 NNNNN07537   ClaveEstCta    I SNN 04012602250149037102001100000012600350149016500
/F=0012400NNN000000000Arial                                   
/f=0012700NNN000000000Arial                                   
CNNNNN ME00000000000000000000100
/?=C9509=0
/M=No hay registros...
 NNNNN07538   FechaEmision   I SNN 04017502250198035200001100000017500340198016400
/F=0012400NNN000000000Arial                                   
/f=0012700NNN000000000Arial                                   
 NNNNN07539   Estado         I SNN 04022402250420037100001112000022400350247016500
/F=0012400NNN000000000Arial                                   
/f=0012700NNN000000000Arial                                   
KNNNNN0040273003302930208000100
/T=Cantidad Estados Emitidos
/F=0013700NNN000000000Arial                                   
 NNNNN07540   CantEstadosEntrIDSNNF04027302250296027500101150000046800430491017300
/V=C7540+1
/C=255255255
/F=0012400NNN000000000Arial                                   
/f=0012700NNN000000000Arial                                   
TNNNNN 1006T    Consulta Estados de Cuentas EmitidosC0681 00
/?=I33
VNNNNN0050005000504500800SSSD000000000000000000000000000000000000000
/T=Consulta
/C=192192192
KN   N 050027002000900780010001
/C=000000255
/F=0013700NNN255255255Arial                                   
 NNNNN07536   Nro.Cliente    IDSNNA05004702250070035202101150000004700350070016500
/V=C7536.1
/C=255255255
/F=0012400NNN000000000Arial                                   
/f=0012700NNN000000000Arial                                   
 NNNNN00902   Codigo Cliente INSNNA00046806460491069602001100000046805010491063100
/V=C7536.1
/F=0012400NNN000000000Arial                                   
/f=0012700NNN000000000Arial                                   
 NNNNN01000   Nombre Cliente IDSNN 05004703850070069600101150000044200940465022400
/C=255255255
/F=0012400NNN000000000Arial                                   
/f=0012700NNN000000000Arial                                   
KNNNNN0050097002003240780010101
/C=000000255
/F=0013700NNN255255255Arial                                   
CNNNNN  w00000000000000000000100
/R=F
 NNNNN07537   ClaveEstCta    IDSNNA05012602250149037100101150000012600350149016500
/V=C7537.1
/C=255255255
/F=0012400NNN000000000Arial                                   
/f=0012700NNN000000000Arial                                   
CNNNNN ME00000000000000000000100
/?=C9509=0
/M=No hay registros...
 NNNNN07538   Fecha Emision  IDSNN 05017502250198035200101150000017500340198016400
/C=255255255
/F=0012400NNN000000000Arial                                   
/f=0012700NNN000000000Arial                                   
 NNNNN07539   Estado         IDSNNA05022402250247037100101150000022400350247016500
/V=C7539.1
/C=255255255
/F=0012400NNN000000000Arial                                   
/f=0012700NNN000000000Arial                                   
KNNNNN0050273003302930208000100
/T=Cantidad Estados Emitidos
/F=0013700NNN000000000Arial                                   
 NNNNN07540   Cant Estados   IDSNNA05027302250296027500101150000046800430491017300
/V=C7540.1
/C=255255255
/F=0012400NNN000000000Arial                                   
/f=0012700NNN000000000Arial                                   
*#I30#Alta
*#I31#Baja
*#I32#Modificiación
*#I33#Consulta
