VERSION:051
TN   N 1006T                       Consulta GenéricaC1191 00
VNSSSS0010001000003460799SSSD000000000000000000000000000000000000000
/T=Mantenimiento Zonas Sucursales
/C=192192192
KNNNNN0010006000702110768000101
/T=Datos
/F=0012700NNN000000000Arial                                   
 NNNNN09001                  I SSN 01002900230199075410001160000007400430094009300
/L=0
/F=0012400NNN000000000Arial                                   
/f=0012700NNN000000000Arial                                   
KNNNNN0010220001002700771000101
/T=Opción
/F=0012700NNN000000000Arial                                   
 NNNNN00375   OPCIONES       I NSNK01024000410260075200101130000000700070027012600
/V=A
/F=0012700NNN000000000Arial                                   
/f=0012700NNN000000000Arial                                   
CNSSSS0  00000000000000000000100
/F=A(C375.1="A")
/P=I20
CNSSSS0  00000000000000000000100
/F=A(C375.1="B")
/P=I21
CNSSSS0  00000000000000000000100
/F=A(C375.1="C")
/P=I22
CNSSSS0  00000000000000000000100
/F=A(C375.1="M")
/P=I23
 NNNNN01135   Zona de Cobro  INNSNA00000701500027021000001100000000700070027012600
/V=C9001.1
/F=0012400NNN000000000Arial                                   
/f=0012700NNN000000000Arial                                   
CNSSSS0ME00000000000000000000100
/F=(I21OI22OI23)YC9509=0
/M=OPCIÓN INVALIDA - REGISTRO INEXISTENTE
TN   N 1001T                           Alta GenéricaA1191 00
/?=I20
VNSSSS0020038001003090765NNND000000000000000000000000000000000000000
/T=Datos Alta
/C=192192192
KNNNNN0020023001802210738000101
/T=Alta
/F=0012700NNN000000000Arial                                   
 NNNNN01135   Zona de Cobro  I NSN 02006803030088035902001100000006601650086028400
/F=0012400NNN000000000Arial                                   
/f=0012700NNN000000000Arial                                   
 NNNNN01136   Descripción    I NSN 02010603030126057700001100000010601650126025300
/F=0012400NNN000000000Arial                                   
/f=0012700NNN000000000Arial                                   
 NNNNN03854   Analiza Sucurs.I NSN 02015003030219037800101111000015001650173029500
/C=255255255
/F=0012400NNN000000000Arial                                   
/f=0012700NNN000000000Arial                                   
TN   N 1005T                           Baja GenéricaB1191 00
/?=I21
VNSSSS0030038001003080765NNND000000000000000000000000000000000000000
/T=Datos Baja
/C=192192192
KNNNNN0030023001802210738000101
/T=Baja
/F=0012700NNN000000000Arial                                   
 NNNNN01135   Zona de Cobro  IINSNA03006803030088035702101150000006701650087028400
/V=C1135.1
/C=255255255
/F=0012400NNN000000000Arial                                   
/f=0012700NNN000000000Arial                                   
 NNNNN01136   Descripción    IINSNA03011003030130057700101150000011001650130028400
/V=C1136
/C=255255255
/F=0012400NNN000000000Arial                                   
/f=0012700NNN000000000Arial                                   
 NNNNN03854   Analiza Sucurs.IINSN 03015003030173035700101150000015001650173029500
/C=255255255
/F=0012400NNN000000000Arial                                   
/f=0012700NNN000000000Arial                                   
TN   N 1009T                   Modificación GenéricaM1191 00
/?=I23
VNSSSS0040038001003080765NNND000000000000000000000000000000000000000
/T=Datos Modificación
/C=192192192
KNNNNN0040023001802210738000101
/T=Modificación
/F=0012700NNN000000000Arial                                   
CN   N  w00000000000000000000100
/R=F
 NNNNN01135   Zona de Cobro  IINSNA04006803030088037102101150000006801650088028400
/V=C1135.1
/C=255255255
/F=0012400NNN000000000Arial                                   
/f=0012700NNN000000000Arial                                   
 NNNNN01136   Descripción    I NSNA04010603010129057500101100000011201650132028400
/V=C1136
/C=255255255
/F=0012400NNN000000000Arial                                   
/f=0012700NNN000000000Arial                                   
 NNNNN03854   Analiza Sucurs.I NSN 04015003030218037100101111000015001650173029500
/C=255255255
/F=0012400NNN000000000Arial                                   
/f=0012700NNN000000000Arial                                   
TN   N 1006T                       Consulta GenéricaC1191 00
/?=I22
VNSSSS0050038001003080765NNND000000000000000000000000000000000000000
/T=Datos Consulta
/C=192192192
KNNNNN0050023001802210738000101
/T=Consulta
/F=0012700NNN000000000Arial                                   
 NNNNN01135   Zona de Cobro  IINSNA05006803030088035702101150000006801650088028400
/V=C1135.1
/C=255255255
/F=0012400NNN000000000Arial                                   
/f=0012700NNN000000000Arial                                   
 NNNNN01136   Descripción    IINSNA05010903030132057700101150000010901650129028400
/V=C1136
/C=255255255
/F=0012400NNN000000000Arial                                   
/f=0012700NNN000000000Arial                                   
 NNNNN03854   Analiza Sucurs.IINSN 05015003030173035700101150000015001650173029500
/C=255255255
/F=0012400NNN000000000Arial                                   
/f=0012700NNN000000000Arial                                   
