VERSION:054_5
TN  NN 1006TConsulta Generica                       C00000 00
*N  NN se obtiene el numero de solicitud y su metodologia
 N  NN 07300   Nro. Solicitud INNSNL00000701500027027000001100000000700070027012600
 NSSNN 07301   Nro. Cliente   INNSNL00000701500027027000001100000000700070027012600
 NSSNN 07302   Moneda         INNSNL00000701500027027000001100000000700070027012600
 NSSNN 07344   Id.Metodología INNSN 00000701500027027000001100000000700070027012600
 NSSNN 00902   Codigo Cliente INNSNA00000701500027027000001100000000700070027012600
/V=C7301.1
 NSSNN 01000   Nombre         INNSN 00000701500027027000001100000000700070027012600
TN  NN 1008TLectura Indicadores                     S01020 00
 NNNNN 02134   Solicitud      INNNNA00000701330027024300001100000000700070027012600
/V=C7300.1
/F=0008400NNN000000000Arial                                   
/f=0008400NNN000000000Arial                                   
 NNNNN 03087   Cliente        INNSNA00000701500027033000001100000000700070027012600
/V=C7301.1
/F=0008400NNN000000000Arial                                   
/f=0008400NNN000000000Arial                                   
 NNNNN 03088   Moneda         INNSNA00000701500027033000001100000000700070027012600
/V=C7302.1
/F=0008400NNN000000000Arial                                   
/f=0008400NNN000000000Arial                                   
 NNNNN 02136   Indicadores    INNNN 00000701330027024300001100000000700070027012600
/F=0008400NNN000000000Arial                                   
/f=0008400NNN000000000Arial                                   
CNNNNN   00000000000000000000100
/F=C9509=0
/P=I300
TN  NN 1005TBaja Indicadores                        B01021 00
/?=!I300
 NNNNN 02134   Solicitud      INNNNA00000701330027024300001100000000700070027012600
/V=C2134.2
/F=0008400NNN000000000Arial                                   
/f=0008400NNN000000000Arial                                   
 NNNNN 03087   Cliente        INNSNA00000701500027033000001100000000700070027012600
/V=C3087.2
/F=0008400NNN000000000Arial                                   
/f=0008400NNN000000000Arial                                   
 NNNNN 03088   Moneda         INNSNA00000701500027033000001100000000700070027012600
/V=C3088.2
/F=0008400NNN000000000Arial                                   
/f=0008400NNN000000000Arial                                   
 NNNNN 02135   Item           INNNNA00000701330027024300001100000000700070027012600
/V=C2135.2
/F=0008400NNN000000000Arial                                   
/f=0008400NNN000000000Arial                                   
 NNNNN 02136   Indicadores    INNNN 00000701330027024300001100000000700070027012600
/F=0008400NNN000000000Arial                                   
/f=0008400NNN000000000Arial                                   
TN  NN 1006TItero                                   C00000 00
/?=!I300
CNNNNN  I00000000000000000000100
/R=2
TN  NN 1008TLectura Criterios                       S07590 00
 NNNNN 02140   Solicitud      INNNNA00000701330027024300001100000000700070027012600
/V=C7300.1
/F=0008400NNN000000000Arial                                   
/f=0008400NNN000000000Arial                                   
 NNNNN 03089   Cliente        INNSNA00000701500027033000001100000000700070027012600
/V=C7301.1
/F=0008400NNN000000000Arial                                   
/f=0008400NNN000000000Arial                                   
 NNNNN 03221   Moneda         INNSNA00000701500027021000001100000000700070027012600
/V=C7302.1
/F=0008400NNN000000000Arial                                   
/f=0008400NNN000000000Arial                                   
 NNNNN 02143   Resultado      INNNN 00000701330027024300001100000000700070027012600
/F=0008400NNN000000000Arial                                   
/f=0008400NNN000000000Arial                                   
CNNNNN   00000000000000000000100
/F=C9509=0
/P=I301
TN  NN 1005TBaja Criterios                          B07591 00
/?=!I301
 NNNNN 02140   Solicitud      INNNNA00000701330027024300001100000000700070027012600
/V=C2140.5
/F=0008400NNN000000000Arial                                   
/f=0008400NNN000000000Arial                                   
 N  NN 02745   Ordinal        INNSNA00000701520030020202101100000000700070030013700
/V=C2745.5
/F=0012400NNN000000000Arial                                   
/f=0012700NNN000000000Arial                                   
 NNNNN 03089   Cliente        INNSNA00000701500027033000001100000000700070027012600
/V=C3089.5
/F=0008400NNN000000000Arial                                   
/f=0008400NNN000000000Arial                                   
 NNNNN 03221   Moneda         INNSNA00000701500027021000001100000000700070027012600
/V=C3221.5
/F=0008400NNN000000000Arial                                   
/f=0008400NNN000000000Arial                                   
 NNNNN 02141   Item           INNNNA00000701330027024300001100000000700070027012600
/V=C2141.5
/F=0008400NNN000000000Arial                                   
/f=0008400NNN000000000Arial                                   
 NNNNN 02142   Criterios      INNNN 00000701330027024300001100000000700070027012600
/F=0008400NNN000000000Arial                                   
/f=0008400NNN000000000Arial                                   
TN  NN 1006TItero                                   C00000 00
/?=!I301
CNNNNN  I00000000000000000000100
/R=5
TN  NN 1006TAlta Criterios                          C00001 00
 NSSNN 07301   Nro. Cliente   INNSNA00000701500027027000001100000000700070027012600
/V=C7301.1
 NSSNN 07302   Moneda         INNSNA00000701500027027000001100000000700070027012600
/V=C7302.1
 NSSNN 07303   Cod. Sucursal  INNSNA00000701500027027000001100000000700070027012600
/V=C7303.1
DN  NN 7036Ov00
*$2017-03-30 14:36:55TOP
