VERSION:055_5
TN  NN 1006TConsulta                                C00000 00
*$2020-04-07 17:40:12PABLOP
 NNNNN 00556   Alfa de 1                                         INNNNI000007015200300202001011000000007000700300137000
/V=CLI_PER
/F=0012400NNN000000000Arial                                   
/f=0012700NNN000000000Arial                                   
*$2020-04-07 16:34:10PABLOP
 NNNNN 00665   Nro.Cliente                                       INNNNI000007015200300202001011000000007000700300137000
/?=C556.0='C'
/V=CODCLI
/F=0012400NNN000000000Arial                                   
/f=0012700NNN000000000Arial                                   
*$2020-04-07 16:34:23PABLOP
 NNNNN 01057   Nro Persona                                       INNNNI000007015200300202001011000000007000700300137000
/?=C556.0='P'
/V=NUMPER
/F=0012400NNN000000000Arial                                   
/f=0012700NNN000000000Arial                                   
*$2020-04-07 16:35:25PABLOP
 NNNNN 33378   Tipos Formularios                                 INNSNI000007015200300202021011000000007000700300137000
/V=TIPO_FORMULARIO
/F=0012400NNN000000000Arial                                   
/f=0012700NNN000000000Arial                                   
*$2020-04-07 16:44:48PABLOP
CNNNNN   00000000000000000000100
/F=C33378=1OC33378=4
/P=I200
*$2020-04-07 17:46:51PABLOP
CNNNNN   00000000000000000000100
/F=C33378=2
/P=I201
*$2020-04-07 16:26:52PABLOP
CNNNNN   00000000000000000000100
/F=C33378=1OC33378=4
/P=I202
*$2020-04-07 17:47:24PABLOP
CNNNNN   00000000000000000000100
/F=C33378=4
/P=I203
*$2020-04-07 17:46:59PABLOP
TN  NN 1006TConsulta Registro Firma PF              C00001 00
/?=I200
*$2020-04-07 16:26:52PABLOP
 NNNNN 00910                                                     INNNNF000007015200300452001011000000007000700300137000
/V="TZPQUERY.EXE /Q217 /CNUMPER|" + C1057.1 + "| /A"
/F=0012400NNN000000000Arial                                   
/f=0012700NNN000000000Arial                                   
*$2020-04-07 16:38:09PABLOP
 NNNNN 09528   Linea Comando                                     INNSNF000007015200300452001011000000007000700300137000
/V=C910
/F=0012400NNN000000000Arial                                   
/f=0012700NNN000000000Arial                                   
*$2020-04-07 16:26:52PABLOP
CNNNNN  M00000000000000000000100
*$2020-04-07 16:26:52PABLOP
TN  NN 1006TConsulta Registro Firma Cliente         C00001 00
/?=I201
*$2020-04-07 16:26:52PABLOP
 NNNNN 00910                                                     INNNNF000007015200300452001011000000007000700300137000
/V="TZPQUERY.EXE /Q0218 /CNUMPER|C665.1| /A"
/F=0012400NNN000000000Arial                                   
/f=0012700NNN000000000Arial                                   
*$2020-04-07 16:37:40PABLOP
 NNNNN 09528   Linea Comando                                     INNSNF000007015200300452001011000000007000700300137000
/V=C910
/F=0012400NNN000000000Arial                                   
/f=0012700NNN000000000Arial                                   
*$2020-04-07 16:26:52PABLOP
CNNNNN  M00000000000000000000100
*$2020-04-07 16:26:52PABLOP
TN  NN 1006TConsulta Imp. Ganancias                 C00001 00
/?=I202
*$2020-04-07 16:26:52PABLOP
 NNNNN 00910                                                     INNNNF000007015200300452001011000000007000700300137000
/V="TZPQUERY.EXE /Q219 /CNUMPER|" +  C1057.1 + "| /A"
/F=0012400NNN000000000Arial                                   
/f=0012700NNN000000000Arial                                   
*$2020-04-07 16:38:21PABLOP
 NNNNN 09528   Linea Comando                                     INNSNF000007015200300452001011000000007000700300137000
/V=C910
/F=0012400NNN000000000Arial                                   
/f=0012700NNN000000000Arial                                   
*$2020-04-07 16:26:52PABLOP
CNNNNN  M00000000000000000000100
*$2020-04-07 16:26:52PABLOP
TN  NN 1006TConsulta PEP                            C00001 00
/?=I203
*$2020-04-07 16:26:52PABLOP
 NNNNN 00910                                                     INNNNF000007015200300452001011000000007000700300137000
/V="TZPQUERY.EXE /Q220 /CNUMPER|" + C1057.1 + "| /A"
/F=0012400NNN000000000Arial                                   
/f=0012700NNN000000000Arial                                   
*$2020-04-07 16:38:35PABLOP
 NNNNN 09528   Linea Comando                                     INNSNF000007015200300452001011000000007000700300137000
/V=C910
/F=0012400NNN000000000Arial                                   
/f=0012700NNN000000000Arial                                   
*$2020-04-07 16:26:52PABLOP
CNNNNN  M00000000000000000000100
*$2020-04-07 16:26:52PABLOP
DN  NN 0000Ov00
*$2020-04-07 16:46:15PABLOP
*#I200#Firma PF
*#I201#Firma Cliente
*#I202#Dec. Imp. Ganancias
*#I203#PEP
