VERSION:055_5
TN  NN 1006TConsulta Generica                       C00000 00
*$2020-09-02 17:39:50TOP
 NSSNN 45050                                                     INNSNI000007015200300302021011000000007000700300137000
/V=NRO_CONVENIO
/F=0012400NNN000000000Arial                                   
/f=0012700NNN000000000Arial                                   
*$2020-09-02 17:40:31TOP
 NNNNN 44735   Id Tipo Conv                                      INNSNI000007015200300202021011000000007000700300137000
/V=TIPO
/F=0012400NNN000000000Arial                                   
/f=0012700NNN000000000Arial                                   
*$2020-09-02 17:41:08TOP
 N  NN 11952   wf Task ID                                        INNSNI000007015200300302021011000000007000700300137000
/V=TaskID
/F=0012400NNN000000000Arial                                   
/f=0012700NNN000000000Arial                                   
*$2020-09-02 17:41:08TOP
DN  NN 1158SS
*$2020-09-02 17:41:17TOP
VN  NN 010005000501560524NNND000000000000000000000000000000000000000
/T=Consulta
/C=192192192
*$2020-09-02 17:39:50TOP
 NNNNN 00327   Contrato digitalizado                             I NSNK010034027502240389001011110000034008300570213000
/V=N
/F=0012400NNN000000000Arial                                   
/f=0012700NNN000000000Arial                                   
*$2020-09-02 17:39:50TOP
CNNNNN   00000000000000000000100
/F=C327='S'
/P=I101
*$2020-09-02 17:39:50TOP
TN  NN 1008TBusco ultima bitacora                   S44730 00
/O=C44810 desc
/F=C44808=C45050.1 and C44809="P"
*$2020-09-03 10:45:19TOP
 NNNNN 44811   Estado                                            INNNN 000007015200300202001011000000007000700300137000
/F=0012400NNN000000000Arial                                   
/f=0012700NNN000000000Arial                                   
*$2020-09-02 17:39:50TOP
CNNNNN   00000000000000000000100
/F=C9509=1
/P=I100
*$2020-09-02 17:39:50TOP
TN  NN 1001TAlta Bitacora                           A44731 00
*$2020-09-02 17:39:50TOP
 NNNNN 44808   Convenio                                          INNSNA000007015200300302021011000000007000700300137000
/V=C45050.1
/F=0012400NNN000000000Arial                                   
/f=0012700NNN000000000Arial                                   
*$2020-09-03 10:36:51TOP
 NNNNN 44809   Tipo Convenio                                     INNSNK000007015200300202001011000000007000700300137000
/V=P
/F=0012400NNN000000000Arial                                   
/f=0012700NNN000000000Arial                                   
*$2020-09-02 17:44:06TOP
 NNNNN 44810   Correlativo                                       INNSNK000007015200300302021011000000007000700300137000
/?=!I100
/V=1
/F=0012400NNN000000000Arial                                   
/f=0012700NNN000000000Arial                                   
*$2020-09-02 17:39:50TOP
 NNNNN 44810   Correlativo                                       INNSNF000007015200300302021011000000007000700300137000
/?=I100
/V=C44810.2+1
/F=0012400NNN000000000Arial                                   
/f=0012700NNN000000000Arial                                   
*$2020-09-02 17:39:50TOP
 NSSNN 44811   Estado                                            INNNNA000007015200300202001011000000007000700300137000
/V=C44799.1
/F=0012400NNN000000000Arial                                   
/f=0012700NNN000000000Arial                                   
*$2020-09-02 17:44:51TOP
 NNNNN 44812   Fecha                                             INNNNA000007015200300302001011000000007000700300137000
/V=C9500
/F=0012400NNN000000000Arial                                   
/f=0012700NNN000000000Arial                                   
*$2020-09-02 17:39:50TOP
 NNNNN 44813   Hora:                                             INNSNF000007015200300302001011000000007000700300137000
/V=C9506
/F=0012400NNN000000000Arial                                   
/f=0012700NNN000000000Arial                                   
*$2020-09-02 17:39:50TOP
 NNNNN 44814   Asiento                                           INNNNA000007015200300302021011000000007000700300137000
/V=C9507
/F=0012400NNN000000000Arial                                   
/f=0012700NNN000000000Arial                                   
*$2020-09-02 17:39:50TOP
 NNNNN 44815   Sucursal                                          INNSNA000007015200300202021011000000007000700300137000
/V=C9502
/F=0012400NNN000000000Arial                                   
/f=0012700NNN000000000Arial                                   
*$2020-09-02 17:39:50TOP
 NNNNN 44816   Usuario                                           INNNNA000007015200300302001011000000007000700300137000
/V=C9505
/F=0012400NNN000000000Arial                                   
/f=0012700NNN000000000Arial                                   
*$2020-09-02 17:39:50TOP
VN  NN 020064013102270559NNND000000000000000000000000000000000000000
/T=Ingrese un comentario
/C=192192192
*$2020-09-02 17:39:50TOP
 NNNNN 44817   Comentarios                                       I NSN 020013010201240513001011000000007000700300137100
/F=0012400NNN000000000Arial                                   
/f=0012700NNN000000000Arial                                   
*$2020-09-02 17:39:50TOP
TN  NN 1006TRetorno WF                              C00000 00
/?=I101
*$2020-09-02 17:39:50TOP
 NSSNN 11952   wf Task ID                                        INNSNA000007015200300302021011000000007000700300137000
/V=C11952.1
/F=0012400NNN000000000Arial                                   
/f=0012700NNN000000000Arial                                   
*$2020-09-02 17:39:50TOP
 NNNNN 44782   Id Conv Pago.                                     INNSNA000007015200300302021011000000007000700300137000
/V=C45050.1
/F=0012400NNN000000000Arial                                   
/f=0012700NNN000000000Arial                                   
*$2020-09-03 09:25:45TOP
 NNNNN 44783   Nombre Convenio                                   INNSN 000007015200300452001011000000007000700300137000
/F=0012400NNN000000000Arial                                   
/f=0012700NNN000000000Arial                                   
*$2020-09-03 09:26:20TOP
 NNNNN 44735   Id Tipo Conv                                      INNNNA000007015200300202021011000000007000700300137000
/V=C44788
/F=0012400NNN000000000Arial                                   
/f=0012700NNN000000000Arial                                   
*$2020-09-03 09:27:21TOP
 NNNNN 44736   Desc. Tipo Convenio:                              INNSN 000007015200300452001011000000007000700300137000
/F=0012400NNN000000000Arial                                   
/f=0012700NNN000000000Arial                                   
*$2020-09-02 17:39:50TOP
 NNNNN 09528   Linea Comando                                     INNSNF000007015200300452001011000000007000700300137000
/?=I101YC44748=9
/V="TZPQUERY.EXE /Q2683 /CNRO_CONVENIO|"+C44782+"| /DS /A"
/F=0012400NNN000000000Arial                                   
/f=0012700NNN000000000Arial                                   
*$2020-09-03 09:32:41TOP
 NNNNN 09528   Linea Comando                                     INNSNF000007015200300452001011000000007000700300137000
/?=I101YC44748=10
/V="TZPQUERY.EXE /Q2684 /CNRO_CONVENIO|"+C44782+"| /DS /A"
/F=0012400NNN000000000Arial                                   
/f=0012700NNN000000000Arial                                   
*$2020-09-03 09:32:49TOP
 NNNNN 09528   Linea Comando                                     INNSNF000007015200300452001011000000007000700300137000
/?=I101YC44748=11
/V="TZPQUERY.EXE /Q2685 /CNRO_CONVENIO|"+C44782+"| /DS /A"
/F=0012400NNN000000000Arial                                   
/f=0012700NNN000000000Arial                                   
*$2020-09-03 09:32:57TOP
 NNNNN 09528   Linea Comando                                     INNSNF000007015200300452001011000000007000700300137000
/?=I101YC44748=12
/V="TZPQUERY.EXE /Q2686 /CNRO_CONVENIO|"+C44782+"| /DS /A"
/F=0012400NNN000000000Arial                                   
/f=0012700NNN000000000Arial                                   
*$2020-09-03 09:33:05TOP
 NNNNN 09528   Linea Comando                                     INNSNF000007015200300452001011000000007000700300137000
/?=I101YC44748=13
/V="TZPQUERY.EXE /Q2687 /CNRO_CONVENIO|"+C44782+"| /DS /A"
/F=0012400NNN000000000Arial                                   
/f=0012700NNN000000000Arial                                   
*$2020-09-03 09:33:14TOP
CNNNNN  M00000000000000000000100
/?=I101Y(C44748=9OC44748=10OC44748=11OC44748=12OC44748=13)
*$2020-09-03 10:39:03TOP
CNNNNN  W00000000000000000000101
/R=CompleteTaskInstance=C11952
*$2020-09-02 17:39:50TOP
DN  NN 0000Ov00
*$2020-08-06 13:00:49GON
*#I101#Digitalizado
*#I100#Existe bitacora
