VERSION:054_5
TN  NN 1006TConsulta Generica                       C23421 00
*$2013-02-26 15:18:57TOP
 NNNNN 28204   Estado         INNNNK00000701520030020200001100000000700070030013700
/V=0
/F=0012400NNN000000000Arial                                   
/f=0012700NNN000000000Arial                                   
*$2013-02-25 16:41:05TOP
VNNNNN 010010025604590593SSSD000000000000000000000000000000000000000
/T=PLIB 1.0 - Seleccion de Master
/C=255255255
*$2013-02-21 11:30:13TOP
*N  NN informacion del cuadro de dialogo************************************
*$2013-02-20 15:37:55TOP
*N  NN filtro las masters para el usuario.
*$2013-06-20 14:24:37TOP
 NSSNN 20904   Usuario        INNNNA00000701520027030200101100010000700070027013700
/V=C9505
/F=0013700NNN000000000Arial                                   
/c=127127127
/f=0013700NNN255255255Arial                                   
*$2016-11-22 09:41:13FNAV
 NSSNN 20905   GRUPO          INNNN 00000701520027030200101100010000700070027013700
/F=0013700NNN000000000Arial                                   
/c=127127127
/f=0013700NNN255255255Arial                                   
*$2016-11-22 09:40:55FNAV
 NNNNN 00127   Filtro ayuda   INNNNF01000701520030045200001100000000700070030013700
/V=" ID IN (SELECT ID_MASTER FROM ITF_MASTER_USR WHERE USUARIO = '" + C9505 +"' AND TZ_LOCK = 0) OR ID IN (SELECT ID_MASTER FROM ITF_MASTER_GR WHERE GRUPO = '" + C20905 +"' AND TZ_LOCK = 0)"
/F=0012400NNN000000000Arial                                   
/f=0012700NNN000000000Arial                                   
*$2016-11-22 09:42:09FNAV
 NNNNN 20912   Campo Ayuda MasIENNN 01004100710326049500001160000012601430149027300
/L=0
/F=0012400NNN000000000Arial                                   
/f=0012700NNN000000000Arial                                   
*$2013-02-20 11:20:23TOP
 NNNNN 26432   ID             INNNNA00000701520030045202001100000000700070030013700
/V=C20912
/F=0012400NNN000000000Arial                                   
/f=0012700NNN000000000Arial                                   
*$2013-02-26 15:56:44TOP
*N  NN forzo lectura
*$2013-02-20 10:42:02TOP
 NNNNN 26434   DESCRIPCION    INNSN 00000701520030045200001100000000700070030013700
/F=0012400NNN000000000Arial                                   
/f=0012700NNN000000000Arial                                   
*$2013-02-26 15:59:31TOP
 NNNNN 20918   Opciones       I NNN 01035100940371051000001130000000700070030013700
/F=0012400NNN000000000Arial                                   
/f=0012700NNN000000000Arial                                   
*$2013-02-20 12:11:02TOP
CNSSNS   00000000000000000000100
/F=A(C20918="E")
/P=I30
*$2013-02-20 14:20:03TOP
CNSSNS   00000000000000000000100
/F=A(C20918="V")
/P=I31
*$2013-02-20 14:20:08TOP
CNSSNS   00000000000000000000100
/F=A(C20918="A")
/P=I32
*$2013-02-21 14:00:20TOP
*N  NN Preparo los parametros que necesita la OP de alta
*$2013-02-25 15:18:02TOP
*N  NN id de ticket a insertar
*$2013-02-25 15:21:02TOP
 NNNNN 20920   autonumerador IINNNN 00000701520030045202001100000000700070030013700
/F=0012400NNN000000000Arial                                   
/f=0012700NNN000000000Arial                                   
*$2016-11-23 11:43:18FNAV
 NNNNN 50462   Num ITF_TICKET INNNNA00000701520030045202001100000000700070030013700
/V=C20920.1
/F=0012400NNN000000000Arial                                   
/f=0012700NNN000000000Arial                                   
*$2016-11-23 11:57:42FNAV
*N  NN id master para consultar
*$2013-02-25 15:35:16TOP
 NNNNN 20919   NumeroDieci    INNNNA00000701520030045202001100000000700070030013700
/V=C26432
/F=0012400NNN000000000Arial                                   
/f=0012700NNN000000000Arial                                   
*$2013-02-26 15:56:54TOP
 NNNNN 26479   Id Reporte     INNNN 00000701520027030202101100010000700070027013700
/F=0013700NNN000000000Arial                                   
/c=127127127
/f=0013700NNN255255255Arial                                   
*$2016-11-17 14:35:14FNAV
CNNNNN   00000000000000000000100
/F=C26479#0
/P=I40
*$2016-11-17 14:36:23FNAV
TN  NN 1006TConsulta Generica                       C00001 00
/?=I30
*$2013-02-25 15:48:59TOP
DN  NN 2447OS01
*$2013-02-25 15:49:46TOP
 NNNNN 28204   Estado         INNNNL00000701520030020200001100000000700070030013700
/F=0012400NNN000000000Arial                                   
/f=0012700NNN000000000Arial                                   
*$2013-02-25 16:50:20TOP
 NNNNN 20922   NumeroDieci    INNNNL00000701520030045202001100000000700070030013700
/F=0012400NNN000000000Arial                                   
/f=0012700NNN000000000Arial                                   
*$2016-11-23 11:53:14FNAV
TN  NN 1006TConsulta Ejecuciones anteriores de masteC23431 00
/?=I31
*$2013-02-26 15:19:11TOP
VNNNNN 030001000904410613SSSD000000000000000000000000000000000000000
/T=PLIB 1.0 - Ejecuciones anteriores
/C=255255255
*$2013-02-21 11:30:21TOP
*N  NN informacion del cuadro de dialogo************************************
*$2013-02-20 15:37:55TOP
 NNNNN 28201   Texto          ICNNNA03002101300037048901001150000010900690132019900
/V=C26434.1
/C=255255255
/F=0012400NNN000000000Arial                                   
/f=0012700NNN000000000Arial                                   
*$2013-02-26 15:59:44TOP
*N  NN *****************************************************************************************
*$2013-02-20 15:38:24TOP
*N  NN filtro los tickets de esa master
*$2013-02-20 16:42:12TOP
 NNNNN 00127   Filtro ayuda   INNNNF01000701520030045200001100000000700070030013700
/V="ID_MASTER=" + C26432.1
/F=0012400NNN000000000Arial                                   
/f=0012700NNN000000000Arial                                   
*$2016-11-22 11:25:11FNAV
 NNNNN 20916   Ayuda ITF_TICKEIENNN 03006300380305057500001160000000700070030013700
/L=0
/F=0012400NNN000000000Arial                                   
/f=0012700NNN000000000Arial                                   
*$2016-11-22 11:08:17FNAV
 NNNNN 94900   Opciones       I NNN 03033301010353050302001130010000700070027013700
/c=127127127
/f=0013700NNN255255255Arial                                   
*$2016-11-22 12:23:19FNAV
CNSSNS   00000000000000000000100
/F=A(C94900="A")
/P=I35
*$2016-11-22 12:12:22FNAV
CNSSNS   00000000000000000000100
/F=A(C94900="E")
/P=I36
*$2016-11-22 12:12:22FNAV
TN  NN 1006TConsulta Log Ticket                     C23441 00
/?=I36
*$2016-11-22 12:12:42FNAV
VNNNNN 040001000904651009SSSD000000000000000000000000000000000000000
/T=PLIB 1.0 - Log Ticket 
/C=255255255
*$2013-06-21 11:40:45TOP
*N  NN informacion del cuadro de dialogo***********************************
*$2013-06-26 11:45:57TOP
KNNNNN 040027001900430980010110
/T="Log del ticket numero: "+C20916.3+" - "+C26434.1
/F=0012400NNN000000000Arial                                   
*$2016-11-22 17:28:39FNAV
*N  NN *****************************************************************************************
*$2013-02-20 15:38:24TOP
*N  NN muestro solo el log para el ticket seleccionado anteriormente
*$2013-02-20 17:21:05TOP
 NNNNN 00127   Filtro DinamicoINNNNF01000701520030045200001100000000700070030013700
/V="ID_TICKET=" + C20916.3
/F=0012400NNN000000000Arial                                   
/f=0012700NNN000000000Arial                                   
*$2016-11-22 11:30:33FNAV
 NNNNN 20914                  IENNN 04006400740345096700001160000012601430149027300
/L=0
/F=0012400NNN000000000Arial                                   
/f=0012700NNN000000000Arial                                   
*$2016-11-22 11:30:03FNAV
TN  NN 1006TEjecucion del Kettle                    C00001 00
/?=I30YA(C28204="1")
*$2013-02-25 16:42:02TOP
 NNNNN 00565   NroEjecucion PMINNNNK01000701520030030202001100000000700070030013700
/V=0
/F=0012400NNN000000000Arial                                   
/f=0012700NNN000000000Arial                                   
*$2011-10-13 12:39:13JFY
 NNNNN 00556   sincronico     INNNNK00000701520030020200001100000000700070030013700
/V=1
/F=0012400NNN000000000Arial                                   
/f=0012700NNN000000000Arial                                   
*$2013-02-25 13:51:24TOP
 NNNNN 00089   retorno        INNNNK00000701520030020200001100000000700070030013700
/V=0
/F=0012400NNN000000000Arial                                   
/f=0012700NNN000000000Arial                                   
*$2012-03-05 16:36:08TOP1
 NNNNN 50462   Num ITF_TICKET INNNNA00000701520030045202001100000000700070030013700
/V=C20922.2
/F=0012400NNN000000000Arial                                   
/f=0012700NNN000000000Arial                                   
*$2016-11-23 11:53:32FNAV
CNNNNN  n00000000000000000000100
/R=ITF - Generico,C565.5,C50462.5 AS PTICKET;C556.5 AS wait,C89.5 AS return_code
*$2013-02-26 10:09:09TOP
*N  NN Despligo mensaje con status y mensaje del ticket
*$2013-02-26 09:50:45TOP
 NNNNN 32100   ID             INNNNA00000701520030045202001100000000700070030013700
/V=C20922.2
/F=0012400NNN000000000Arial                                   
/f=0012700NNN000000000Arial                                   
*$2016-11-23 11:53:42FNAV
 NNNNN 32114   STATUS         INNNN 00000701520030020200001100000000700070030013700
/F=0012400NNN000000000Arial                                   
/f=0012700NNN000000000Arial                                   
*$2016-11-23 10:56:28FNAV
 NNNNN 32115   MENSAJE        INNNN 00000701520030045200001100000000700070030013700
/F=0012400NNN000000000Arial                                   
/f=0012700NNN000000000Arial                                   
*$2016-11-23 10:52:55FNAV
CNNNNN A 00000000000000000000110
/M="ESTADO: "+C32114+"       MENSAJE: "+C32115
*$2013-03-01 09:47:03TOP
CNNNNN   00000000000000000000100
/P=I34
*$2016-11-23 18:09:21FNAV
CNNNNN   00000000000000000000100
/F=(C32114='E')
/A=I34
*$2016-11-23 10:54:45FNAV
CNNNNN   00000000000000000000100
/F=(C32114='Z')
/A=I34
*$2016-11-23 10:54:52FNAV
TN  NN 1006TReporte de la Interfaz                  C00001 00
/?=I34YI40
*$2016-11-17 14:38:06FNAV
 NNNNN 26480   Numero         INNNNF00000701520027045202101100010000700070027013700
/V=C20922.2
/F=0013700NNN000000000Arial                                   
/c=127127127
/f=0013700NNN255255255Arial                                   
*$2016-11-23 11:53:52FNAV
 NSSNN 09528   Linea Comando  INNNNF00000701520027045200101100010000700070027013700
/V="tzpquery.exe /Q"+C26479.1+" /CID_TICKET|"+C32100.5+"| /A/DS"
/F=0013700NNN000000000Arial                                   
/c=127127127
/f=0013700NNN255255255Arial                                   
*$2016-11-22 17:30:35FNAV
CNNNNN  M00000000000000000000100
*$2016-11-17 14:27:35FNAV
TN  NN 1006TImprimir Log                            C00001 00
/?=I35
*$2016-11-22 12:12:54FNAV
 NSSNN 09528   Linea Comando  INNNNF00000701520027045200101100010000700070027013700
/V="TZPQUERY.EXE /Q2446 /CID_MASTER|"+C26432.1+"| /A /DS"
/F=0013700NNN000000000Arial                                   
/c=127127127
/f=0013700NNN255255255Arial                                   
*$2016-11-23 15:24:30FNAV
CNNNNN  M00000000000000000000100
*$2016-11-22 12:13:18FNAV
TN  NN 1006TVeo Comentario Master (AYUDA)           C23421 00
/?=I32
*$2013-02-26 15:20:11TOP
VNNNNN 050054041604740574SSSD000000000000000000000000000000000000000
/T=PLIB 1.0 - Ayuda
/C=255255255
*$2013-02-21 14:16:44TOP
 NNNNN 26432   ID             INNNNA01000701520030045200001100000000700070030013700
/V=C26432.1
/F=0012400NNN000000000Arial                                   
/f=0012700NNN000000000Arial                                   
*$2013-02-26 15:57:34TOP
 NNNNN 26439   COMENTARIO     I NNN 05003000390386052800101100000000700070030013710
/C=255255255
/F=0013700NNN000000000Arial Narrow                            
/f=0012700NNN000000000Arial                                   
*$2016-11-22 11:43:27FNAV
*#I40#Tiene Reporte Asociado
*#I30#Indicador Ejecutar
*#I31#Indicador Ver
*#I32#Indicador Ayuda
*#I34#Se ejecuto Kettle
*#I35#Log ulima ejecucion
*#I36#Log basico ticket
