VERSION:049
TN   N 1006TConsulta Genérica                       C0000 00
*N   N //VENTANACLAVE
*N   N //PRINCIPIO
VNSSSS0010001000403940796SSSD000000000000000000000000000000000000000
/T=Mantenimiento de Clas. de Cliente Objetiva por Deuda Reestructurada
/C=192192192
KNNNNN0010018018800380548010100
/T=ABMC de Clasif.de Cliente Obj. por Deuda Reest.
/F=0013700NNN000000000Arial                                   
*N   N //FIN
*N   N //CLAVE(I)
*N   N //PRINCIPIO
 NNNNN03454   ayuda desc 192 IESSN 0100690084024406860000116000000490064006902200
/L=0
/F=0012400NNN000000000Arial                                   
/f=0012700NNN000000000Arial                                   
 NNNNN00702   Importe        INNSNF0000700227009202810000110000000700060009002160
/V=C3454.1
/F=0012400NNN000000000Arial                                   
/f=0012700NNN000000000Arial                                   
 NNNNN00701   Importe        INNSNF0000970227011902810000110000002900267031303880
/V=C3452.1
/F=0012400NNN000000000Arial                                   
/f=0012700NNN000000000Arial                                   
*N   N //FIN
KNNNNN0010047003602550732000101
/T=Datos
/F=0012700NNN000000000Arial                                   
KNSSSS0010261003603260732000101
/T=Opción
/F=0012700NNN000000000Arial                                   
 NNNNN00375   OPCIONES       I NSNK0102860065030607250000113000000070007002701260
/V=A
/F=0012700NNN000000000Arial                                   
CNSSSS0  00000000000000000000100
/F=A(C375.0="A")
/P=I30
CNSSSS0  00000000000000000000100
/F=A(C375.0="B")
/P=I31
CNSSSS0  00000000000000000000100
/F=A(C375.0="C")
/P=I32
CNSSSS0  00000000000000000000100
/F=A(C375.0="M")
/P=I33
TN   N 1001TAlta Genérica                           A1921 00
/?=I30
*N   N //ALTA
*N   N //VENTANADATOS
*N   N //PRINCIPIO
VNSSSS0020085000403080794SSSD000000000000000000000000000000000000000
/T=Alta
/C=192192192
KNNNNN0020032000902300779000101
/T=Alta
/F=0012700NNN000000000Arial                                   
*N   N //CLAVE(N,1)
*N   N //PRINCIPIO
 NNNNN03450   Theta Minimo   I NSN 0200700227009202810000110000000700060009002160
/F=0012400NNN000000000Arial                                   
/f=0012700NNN000000000Arial                                   
CNSSSS0M 00000000000000000000100
/?=C3450=0
/M=Atencion - Dato ingresado con valor = 0
 NNNNN03452   PORCAMORTIZACIOI NSN 0200970227011902810000110000002900267031303880
/F=0012400NNN000000000Arial                                   
/f=0012700NNN000000000Arial                                   
CNSSSS0M 00000000000000000000100
/?=C3452=0
/M=Atencion - Dato ingresado con valor = 0
KNNNNN0020097006001170224000100
/T=Porcentaje Amortizacion
/F=0013700NNN000000000Arial                                   
 NNNNN03451   Theta Maximo   I NSN 0201240227014602810000110000001240060014402160
/F=0012400NNN000000000Arial                                   
/f=0012700NNN000000000Arial                                   
CNSSSS0M 00000000000000000000100
/?=C3451=0
/M=Atencion - Dato ingresado con valor = 0
 NNNNN03453   Categoria      I NSN 0201510227017302880010110000001510060017102160
/C=255255255
/F=0012400NNN000000000Arial                                   
/f=0012700NNN000000000Arial                                   
 NNNNN03449   Descripcion    I NSN 0201780227020003880000110000001780060020101810
/F=0012400NNN000000000Arial                                   
/f=0012700NNN000000000Arial                                   
TN   N 1005TBaja Genérica                           B1921 00
/?=I31
*N   N //BAJA
*N   N //VENTANADATOS
*N   N //PRINCIPIO
VNSSSS0030085000403100794SSSD000000000000000000000000000000000000000
/T=Baja
/C=192192192
KNNNNN0030025000902130776000101
/T=Baja
/F=0012700NNN000000000Arial                                   
 NNNNN03450   Theta Minimo   IDNSNF0300580227008002860010115000000580060007802160
/V=C702.1
/C=255255255
/F=0012400NNN000000000Arial                                   
/f=0012700NNN000000000Arial                                   
 NNNNN03452   PORCAMORTIZACIOIDNSNF0301200227014202860010115000002900267031303880
/V=C701.1
/C=255255255
/F=0012400NNN000000000Arial                                   
/f=0012700NNN000000000Arial                                   
KNNNNN0030120006001410223000100
/T=Porcentaje Amortizacion
/F=0013700NNN000000000Arial                                   
 NNNNN03451   Theta Maximo   IDNSN 0300890227011102860010115000000890060010902160
/C=255255255
/F=0012400NNN000000000Arial                                   
/f=0012700NNN000000000Arial                                   
 NNNNN03453   Categoria      IDNSN 0301510227017402880010115000001510060017102160
/C=255255255
/F=0012400NNN000000000Arial                                   
/f=0012700NNN000000000Arial                                   
 NNNNN03449   Descripcion    IDNSN 0301830227020503880010115000001830060020601810
/C=255255255
/F=0012400NNN000000000Arial                                   
/f=0012700NNN000000000Arial                                   
*N   N //CLAVE(N,1)
*N   N //PRINCIPIO
TN   N 1009TModificación Genérica                   M1921 00
/?=I33
*N   N //MODIFICACION
*N   N //VENTANADATOS
*N   N //PRINCIPIO
VNSSSS0040085000403100794SSSD000000000000000000000000000000000000000
/T=Modificacion
/C=192192192
KNNNNN0040023000902170779000101
/T=Modificacion
/F=0012700NNN000000000Arial                                   
CNNNNN0 w00000000000000000000100
/R=F
 NNNNN03450   Theta Minimo   IDNSNF0400580227008002790010115000000580060007802160
/V=C702.1
/C=255255255
/F=0012400NNN000000000Arial                                   
/f=0012700NNN000000000Arial                                   
 NNNNN03452   PORCAMORTIZACIOIDNSNF0401200227014202790010115000002900267031303880
/V=C701.1
/C=255255255
/F=0012400NNN000000000Arial                                   
/f=0012700NNN000000000Arial                                   
KNNNNN0040120006001440222000100
/T=Porcentaje Amortizacion
/F=0013700NNN000000000Arial                                   
 NNNNN03451   Theta Maximo   I NSN 0400890227011102790000110000000890060010902160
/F=0012400NNN000000000Arial                                   
/f=0012700NNN000000000Arial                                   
CNSSSS0M 00000000000000000000100
/?=C3451=0
/M=Atencion - Dato ingresado con valor = 0
 NNNNN03453   Categoria      I NSN 0401510227017302880010110000001510060017102160
/C=255255255
/F=0012400NNN000000000Arial                                   
/f=0012700NNN000000000Arial                                   
 NNNNN03449   Descripcion    I NSN 0401820227020403880000110000001820060020501810
/F=0012400NNN000000000Arial                                   
/f=0012700NNN000000000Arial                                   
*N   N //CLAVE(N,1)
*N   N //PRINCIPIO
TN   N 1006TConsulta Genérica                       C1921 00
/?=I32
*N   N //CONSULTA
*N   N //VENTANADATOS
*N   N //PRINCIPIO
VNSSSS0050085000403100794SSSD000000000000000000000000000000000000000
/T=Consulta
/C=192192192
KNNNNN0050025000802200778000101
/T=Consulta
/F=0012700NNN000000000Arial                                   
*N   N //CLAVE(N,1)
*N   N //PRINCIPIO
 NNNNN03450   Theta Minimo   IDNSNF0500580227008002810010115000000580060007802160
/V=C702.1
/C=255255255
/F=0012400NNN000000000Arial                                   
/f=0012700NNN000000000Arial                                   
 NNNNN03452   PORCAMORTIZACIOIDNSNF0501200227014202810010115000002900267031303880
/V=C701.1
/C=255255255
/F=0012400NNN000000000Arial                                   
/f=0012700NNN000000000Arial                                   
KNNNNN0050120006001420222000100
/T=Porcentaje Amortizacion
/F=0013700NNN000000000Arial                                   
 NNNNN03451   Theta Maximo   IDNSN 0500890227011102810010115000000890060010902160
/C=255255255
/F=0012400NNN000000000Arial                                   
/f=0012700NNN000000000Arial                                   
 NNNNN03453   Categoria      IDNSN 0501510227017402880010115000001510060017102160
/C=255255255
/F=0012400NNN000000000Arial                                   
/f=0012700NNN000000000Arial                                   
 NNNNN03449   Descripcion    IDNSN 0501830227020503880010115000001830060020601810
/C=255255255
/F=0012400NNN000000000Arial                                   
/f=0012700NNN000000000Arial                                   
CNNNNN0 P00000000000000000000100
