VERSION:055_5
TN  NN 1006TConsulta Generica                       C00000 00
*$2020-03-06 15:07:17ESOTELO
VNSSNS 010008011603720597NNND000000000000000000000000000000000000000
/T=ABMC Fueros
/C=192192192
*$2020-03-06 15:08:06ESOTELO
KNNNNN 010015002000350543010100
/T=ABMC Fueros
/F=0012700NNN000000000Arial                                   
*$2020-03-06 15:08:13ESOTELO
 NSSNN 33123                                                     I SSN 010046002002500546021011600000007000700300137000
/L=0
/F=0012400NNN000000000Arial                                   
/f=0012700NNN000000000Arial                                   
*$2020-03-06 15:08:36ESOTELO
 NNNNN 00901   Opcion ABMC                                       I NNN 010263002502860557001011300000007000700300137000
/F=0012400NNN000000000Arial                                   
/f=0012700NNN000000000Arial                                   
*$2020-03-06 15:07:17ESOTELO
CNNNNN   00000000000000000000100
/F=C901='A'
/P=I100
*$2020-03-06 15:07:17ESOTELO
CNNNNN   00000000000000000000100
/F=C901='B'
/P=I101
*$2020-03-06 15:07:17ESOTELO
CNNNNN   00000000000000000000100
/F=C901='M'
/P=I102
*$2020-03-06 15:07:17ESOTELO
CNNNNN   00000000000000000000100
/F=C901='C'
/P=I103
*$2020-03-06 15:07:17ESOTELO
TN  NN 1001TAlta Generica                           A33121 00
/?=I100
*$2020-03-06 15:09:00ESOTELO
VNNNNN 020068017001740462SSSD000000000000000000000000000000000000000
/T=Alta
/C=192192192
*$2020-03-19 23:43:54ESOTELO
 NNNNN 33121   Id                                                I NNN 020013009900360249001011000000013001200360082000
/F=0012400NNN000000000Arial                                   
/f=0012700NNN000000000Arial                                   
*$2020-03-06 15:09:43ESOTELO
 NNNNN 33122   Descripción                                       I NSN 020042009900650399001011000000042001200650082000
/F=0012400NNN000000000Arial                                   
/f=0012700NNN000000000Arial                                   
*$2020-03-19 23:43:49ESOTELO
 NSSNN 33377   Sigla                                             I NSN 020071009900940163001011000000071001200940082000
/F=0012400NNN000000000Arial                                   
/f=0012700NNN000000000Arial                                   
*$2020-03-19 23:44:16ESOTELO
TN  NN 1005TBaja Generica                           B33121 00
/?=I101
*$2020-03-06 15:09:04ESOTELO
VNNNNN 030068017001750462SSSD000000000000000000000000000000000000000
/T=Baja
/C=192192192
*$2020-03-19 23:44:47ESOTELO
 NNNNN 33121   Id                                                IDNNNA030013009900360249001011500000013001200360082000
/V=C33123.1
/C=255255255
/F=0012400NNN000000000Arial                                   
/f=0012700NNN000000000Arial                                   
*$2020-03-06 16:56:40ESOTELO
 NNNNN 33122   Descripción                                       IDNSN 030042009900650399001011500000042001200650082000
/C=255255255
/F=0012400NNN000000000Arial                                   
/f=0012700NNN000000000Arial                                   
*$2020-03-06 16:56:56ESOTELO
 NSSNN 33377   Sigla                                             IDNSN 030071009900940163001011500000071001200940082000
/C=255255255
/F=0012400NNN000000000Arial                                   
/f=0012700NNN000000000Arial                                   
*$2020-03-19 23:44:44ESOTELO
TN  NN 1009TModificacion Generica                   M33121 00
/?=I102
*$2020-03-06 15:09:09ESOTELO
VNNNNN 040068017001720462SSSD000000000000000000000000000000000000000
/T=Modificación
/C=192192192
*$2020-03-19 23:45:06ESOTELO
 NNNNN 33121   Id                                                IDNNNA040013009900360249001011500000013001200360082000
/V=C33123.1
/C=255255255
/F=0012400NNN000000000Arial                                   
/f=0012700NNN000000000Arial                                   
*$2020-03-06 16:57:10ESOTELO
 NNNNN 33122   Descripción                                       I NSN 040042009900650399001011000000042001200650082000
/F=0012400NNN000000000Arial                                   
/f=0012700NNN000000000Arial                                   
*$2020-03-06 15:10:07ESOTELO
 NSSNN 33377   Sigla                                             I NSN 040071009900940163001011000000071001200940082000
/F=0012400NNN000000000Arial                                   
/f=0012700NNN000000000Arial                                   
*$2020-03-19 23:45:03ESOTELO
TN  NN 1006TConsulta                                C00001 00
/?=I103
*$2020-03-06 15:07:17ESOTELO
VNNNNN 050068017001710462SSSD000000000000000000000000000000000000000
/T=Consulta
/C=192192192
*$2020-03-19 23:52:09ESOTELO
 NNNNN 33121   Id                                                IDNNNA050013009900360249001011500000013001200360082000
/V=C33123.1
/C=255255255
/F=0012400NNN000000000Arial                                   
/f=0012700NNN000000000Arial                                   
*$2020-03-06 16:57:18ESOTELO
 NNNNN 33122   Descripción                                       IDNSN 050042009900650399001011500000042001200650082000
/C=255255255
/F=0012400NNN000000000Arial                                   
/f=0012700NNN000000000Arial                                   
*$2020-03-06 16:57:26ESOTELO
 NSSNN 33377   Sigla                                             IDNSN 050071009900940163001011500000071001200940082000
/C=255255255
/F=0012400NNN000000000Arial                                   
/f=0012700NNN000000000Arial                                   
*$2020-03-19 23:45:24ESOTELO
TN  NN 1006TFin operación                           C00000 00
*$2020-03-06 15:07:17ESOTELO
*#I103#CONSULTA
*#I102#MODIFICACION
*#I101#BAJA
*#I100#ALTA
