VERSION:051
TN  NN 1006TUnidad de Negocio                       C0001 00
*N  NN ***
VNNNNN 010001000103200735NNND000000000000000000000000000000000000000
/T=Unidad de Negocio
/C=192192192
KNNNNN 010007000702370697000101
 NNNNN 4669                  I SNN 01003200540183066400001160000025300290273014800
/L=0
/F=0012400NNN000000000Arial                                   
/f=0012700NNN000000000Arial                                   
 NNNNN 4161   Numero 01      INNNNA01003200540153066400001100000022800260248014500
/V=C4669
/F=0012400NNN000000000Arial                                   
/f=0012700NNN000000000Arial                                   
 NNNNN 0375   OPCIONES       I NSNK01020200560222066600001130000000700070027012600
/V=A
/F=0012700NNN000000000Arial                                   
CNSSNS   00000000000000000000100
/F=A(C375.1="A")
/P=I30
CNSSNS   00000000000000000000100
/F=A(C375.1="B")
/P=I31
CNSSNS   00000000000000000000100
/F=A(C375.1="C")
/P=I32
CNSSNS   00000000000000000000100
/F=A(C375.1="M")
/P=I33
TN  NN 1001TAlta Genérica                           A9251 00
/?=I30
*N  NN //ALTA
*N  NN //VENTANADATOS
*N  NN //PRINCIPIO
VNSSNS 020001000103200735SSSD000000000000000000000000000000000000000
/T=Alta Unidad de Negocio
/C=192192192
KNNNNN 020007000702370697000101
/T=Alta
/F=0012700NNN000000000Arial                                   
*N  NN //CLAVE(N,1)
*N  NN //PRINCIPIO
 NNNNN 4669   Unidad         I NSN 02008002000103031100001100000008000640103018500
/F=0012400NNN000000000Arial                                   
/f=0012700NNN000000000Arial                                   
*N  NN //NOCLAVE
*N  NN //PRINCIPIO
 NNNNN 4670   Nombre Grupo   I NSN 02012002000143064000001100000012000640143018500
/m=>
/F=0012400NNN000000000Arial                                   
/f=0012700NNN000000000Arial                                   
CNSSNS ME00000000000000000000100
/?=C4670=' '
/M=Error - Dato ingresado en blanco
TN  NN 1005TBaja Genérica                           B9251 00
/?=I31
*N  NN //BAJA
*N  NN //VENTANADATOS
*N  NN //PRINCIPIO
VNSSNS 030001000103200735SSSD000000000000000000000000000000000000000
/T=Baja Unidad de Negocio
/C=192192192
KNNNNN 030007000702370697000101
/T=Baja
/F=0012700NNN000000000Arial                                   
*N  NN //CLAVE(N,1)
*N  NN //PRINCIPIO
 NNNNN 4669   Unidad         IINSNA03008002000103030800101150000008000640103018500
/V=C4161.1
/C=255255255
/F=0012400NNN000000000Arial                                   
/f=0012700NNN000000000Arial                                   
*N  NN //NOCLAVE
*N  NN //PRINCIPIO
 NNNNN 4670   Nombre Grupo   IINSN 03012002000143063800101150000012000640143018500
/C=255255255
/F=0012400NNN000000000Arial                                   
/f=0012700NNN000000000Arial                                   
TN  NN 1009TModificación Genérica                   M9251 00
/?=I33
*N  NN //MODIFICACION
*N  NN //VENTANADATOS
*N  NN //PRINCIPIO
VNSSNS 040001000103200735SSSD000000000000000000000000000000000000000
/T=Modificacion Unidad de Negocio
/C=192192192
KNNNNN 040007000702370697000101
/T=Modificación
/F=0012700NNN000000000Arial                                   
*N  NN //CLAVE(N,1)
*N  NN //PRINCIPIO
 NNNNN 4669   Unidad         IINSNA04008502000108032200101150000008500640108016300
/V=C4161.1
/C=255255255
/F=0012400NNN000000000Arial                                   
/f=0012700NNN000000000Arial                                   
*N  NN //NOCLAVE
*N  NN //PRINCIPIO
 NNNNN 4670   Nombre Grupo   I NSN 04012002000143063800001100000012000640143018500
/m=>
/F=0012400NNN000000000Arial                                   
/f=0012700NNN000000000Arial                                   
CNSSNS ME00000000000000000000100
/?=C4670=' '
/M=Error - Dato ingresado en blanco
TN  NN 1006TConsulta Genérica                       C9251 00
/?=I32
*N  NN //CONSULTA
*N  NN //VENTANADATOS
*N  NN //PRINCIPIO
VNSSNS 050001000103200735SSSD000000000000000000000000000000000000000
/T=Consulta Unidad de Negocio
/C=192192192
KNNNNN 050007000702370697000101
/T=Consulta
/F=0012700NNN000000000Arial                                   
*N  NN //CLAVE(N,1)
*N  NN //PRINCIPIO
 NNNNN 4669   Unidad         IINSNA05008502000108030800101150000008500640108018800
/V=C4161.1
/C=255255255
/F=0012400NNN000000000Arial                                   
/f=0012700NNN000000000Arial                                   
*N  NN //NOCLAVE
*N  NN //PRINCIPIO
 NNNNN 4670   Nombre Grupo   IINSN 05012002000143063700101150000012000640143018500
/C=255255255
/F=0012400NNN000000000Arial                                   
/f=0012700NNN000000000Arial                                   
TN  NN 1006TFinaliza Operación                      C0001 00
DN  NN 0166OV00
