3110000100001066904caja de ahorro                000500500001200000120000023KBA0000003505CH.P.LIBRETERES1108201600000000000000000012Z0000003505
3110000100001066902caja de ahorro                000500500001200000120000023KBA0000000000CH.P.LIBRETERES1108201600000000000000000012Z0000003505
3110000100000778101caja de ahorro                000500050000100001000000124   0000000000CH.P.LIBRETERES1108201600000000000000000025Z0000003505
3110000100001066909cuenta corriente              005000050000100001000000124